{
  "project_info": {
    "project_number": "544145317892",
    "firebase_url": "https://sprint3-857d9.firebaseio.com",
    "project_id": "sprint3-857d9",
    "storage_bucket": "sprint3-857d9.appspot.com"
  },
  "client": [
    {
      "client_info": {
        "mobilesdk_app_id": "1:544145317892:android:9fc737962479b7c5",
        "android_client_info": {
          "package_name": "si.uni_lj.fri.pbd2019.runsup"
        }
      },
      "oauth_client": [
        {
          "client_id": "544145317892-fo0cotrfdjs3o05b9ko2ljecgbr1qn8r.apps.googleusercontent.com",
          "client_type": 1,
          "android_info": {
            "package_name": "si.uni_lj.fri.pbd2019.runsup",
            "certificate_hash": "0343c13f6ea5dfb9b42b4d061a900dda30916a92"
          }
        },
        {
          "client_id": "544145317892-r5tq8iv5folap8u6o1vuk7kiusvfi30p.apps.googleusercontent.com",
          "client_type": 3
        }
      ],
      "api_key": [
        {
          "current_key": "AIzaSyBc2mymvjwAuOO_Erwmf1-ods0KmmBFcks"
        }
      ],
      "services": {
        "appinvite_service": {
          "other_platform_oauth_client": [
            {
              "client_id": "544145317892-r5tq8iv5folap8u6o1vuk7kiusvfi30p.apps.googleusercontent.com",
              "client_type": 3
            }
          ]
        }
      }
    }
  ],
  "configuration_version": "1"
}