-- Merging decision tree log ---
manifest
ADDED from C:\Users\djabe\Documents\PSP_projekt\pbd2019-63160061\app\src\main\AndroidManifest.xml:2:1-93:12
INJECTED from C:\Users\djabe\Documents\PSP_projekt\pbd2019-63160061\app\src\main\AndroidManifest.xml:2:1-93:12
INJECTED from C:\Users\djabe\Documents\PSP_projekt\pbd2019-63160061\app\src\main\AndroidManifest.xml:2:1-93:12
INJECTED from C:\Users\djabe\Documents\PSP_projekt\pbd2019-63160061\app\src\main\AndroidManifest.xml:2:1-93:12
MERGED from [com.android.support:design:26.1.0] C:\Users\djabe\.gradle\caches\transforms-1\files-1.1\design-26.1.0.aar\cc21cdc3a58532517dac11e886814491\AndroidManifest.xml:17:1-31:12
MERGED from [com.android.support:recyclerview-v7:26.1.0] C:\Users\djabe\.gradle\caches\transforms-1\files-1.1\recyclerview-v7-26.1.0.aar\f5783afa2ea0ff96b3fa7a8420041954\AndroidManifest.xml:17:1-28:12
MERGED from [com.android.support:appcompat-v7:26.1.0] C:\Users\djabe\.gradle\caches\transforms-1\files-1.1\appcompat-v7-26.1.0.aar\56a20edf1eb82bd137306884d182a145\AndroidManifest.xml:17:1-31:12
MERGED from [com.android.support.constraint:constraint-layout:1.0.2] C:\Users\djabe\.gradle\caches\transforms-1\files-1.1\constraint-layout-1.0.2.aar\08f8c726b749f63f2525975f2d15f7bf\AndroidManifest.xml:2:1-11:12
MERGED from [com.android.support:transition:26.1.0] C:\Users\djabe\.gradle\caches\transforms-1\files-1.1\transition-26.1.0.aar\60949e17b8de583420b658b27705d05e\AndroidManifest.xml:17:1-28:12
MERGED from [com.google.android.gms:play-services-maps:16.0.0] C:\Users\djabe\.gradle\caches\transforms-1\files-1.1\play-services-maps-16.0.0.aar\0045a2ee2904959558bfb03ffa201b7e\AndroidManifest.xml:17:1-32:12
MERGED from [com.google.android.gms:play-services-plus:16.0.0] C:\Users\djabe\.gradle\caches\transforms-1\files-1.1\play-services-plus-16.0.0.aar\c3d4039e722f7739aab6c4a915c4e8e3\AndroidManifest.xml:17:1-24:12
MERGED from [com.google.android.gms:play-services-auth:16.0.0] C:\Users\djabe\.gradle\caches\transforms-1\files-1.1\play-services-auth-16.0.0.aar\4755207fa91ffceeb8e79fcf6910b3dd\AndroidManifest.xml:17:1-39:12
MERGED from [com.google.android.gms:play-services-identity:16.0.0] C:\Users\djabe\.gradle\caches\transforms-1\files-1.1\play-services-identity-16.0.0.aar\753ba42992b898ca5fc2030a535eda53\AndroidManifest.xml:17:1-24:12
MERGED from [com.google.android.gms:play-services-location:16.0.0] C:\Users\djabe\.gradle\caches\transforms-1\files-1.1\play-services-location-16.0.0.aar\74b4555b0ca20556824f79d7485ff271\AndroidManifest.xml:2:1-9:12
MERGED from [com.google.firebase:firebase-auth:16.2.1] C:\Users\djabe\.gradle\caches\transforms-1\files-1.1\firebase-auth-16.2.1.aar\9459f1ea7fa148533eadc713e776278b\AndroidManifest.xml:17:1-42:12
MERGED from [com.google.android.gms:play-services-audience:16.0.0] C:\Users\djabe\.gradle\caches\transforms-1\files-1.1\play-services-audience-16.0.0.aar\1c846aa391e64a25f68ea48c9f1878e4\AndroidManifest.xml:17:1-24:12
MERGED from [com.google.android.gms:play-services-auth-api-phone:15.0.1] C:\Users\djabe\.gradle\caches\transforms-1\files-1.1\play-services-auth-api-phone-15.0.1.aar\335d9b241d8afe9b3f9c801f8c3b2195\AndroidManifest.xml:2:1-7:12
MERGED from [com.google.android.gms:play-services-auth-base:15.1.0] C:\Users\djabe\.gradle\caches\transforms-1\files-1.1\play-services-auth-base-15.1.0.aar\3e82d62ccd17b9d929315e1f8ad38d8a\AndroidManifest.xml:2:1-7:12
MERGED from [com.google.android.gms:play-services-flags:16.0.1] C:\Users\djabe\.gradle\caches\transforms-1\files-1.1\play-services-flags-16.0.1.aar\60a7d4eddb8eb7b260f80852a5ca597d\AndroidManifest.xml:17:1-22:12
MERGED from [com.google.firebase:firebase-auth-interop:16.0.1] C:\Users\djabe\.gradle\caches\transforms-1\files-1.1\firebase-auth-interop-16.0.1.aar\b1e75233d3ba176dfbdacfe5909ab132\AndroidManifest.xml:2:1-10:12
MERGED from [com.google.firebase:firebase-core:16.0.8] C:\Users\djabe\.gradle\caches\transforms-1\files-1.1\firebase-core-16.0.8.aar\9b9a8396ccc422efba2e92f026506170\AndroidManifest.xml:2:1-9:12
MERGED from [com.google.firebase:firebase-analytics:16.4.0] C:\Users\djabe\.gradle\caches\transforms-1\files-1.1\firebase-analytics-16.4.0.aar\52d838cf5f1bea449ef95db72d69aa30\AndroidManifest.xml:2:1-9:12
MERGED from [com.google.android.gms:play-services-measurement-api:16.4.0] C:\Users\djabe\.gradle\caches\transforms-1\files-1.1\play-services-measurement-api-16.4.0.aar\9d08d59d65378d907f20387f13dfac43\AndroidManifest.xml:17:1-36:12
MERGED from [com.google.firebase:firebase-iid:17.0.3] C:\Users\djabe\.gradle\caches\transforms-1\files-1.1\firebase-iid-17.0.3.aar\636052267cce5816696d8846080cf555\AndroidManifest.xml:17:1-59:12
MERGED from [com.google.firebase:firebase-iid-interop:16.0.1] C:\Users\djabe\.gradle\caches\transforms-1\files-1.1\firebase-iid-interop-16.0.1.aar\27deb06d71f465f726416a712b97d40e\AndroidManifest.xml:2:1-10:12
MERGED from [com.google.android.gms:play-services-base:16.0.1] C:\Users\djabe\.gradle\caches\transforms-1\files-1.1\play-services-base-16.0.1.aar\d0fb6a125e7bcb6dcef86fff31875a31\AndroidManifest.xml:17:1-29:12
MERGED from [com.google.firebase:firebase-common:16.0.3] C:\Users\djabe\.gradle\caches\transforms-1\files-1.1\firebase-common-16.0.3.aar\f35f38e4593cdf092f7ffa9f76a7dbad\AndroidManifest.xml:2:1-17:12
MERGED from [com.google.android.gms:play-services-tasks:16.0.1] C:\Users\djabe\.gradle\caches\transforms-1\files-1.1\play-services-tasks-16.0.1.aar\57f9a0a3fc6e6fc40dfd302aaebccb90\AndroidManifest.xml:2:1-9:12
MERGED from [com.google.android.gms:play-services-places-placereport:16.0.0] C:\Users\djabe\.gradle\caches\transforms-1\files-1.1\play-services-places-placereport-16.0.0.aar\90a65ed6d57e3e1cce95400acbd04980\AndroidManifest.xml:17:1-24:12
MERGED from [com.google.android.gms:play-services-measurement:16.4.0] C:\Users\djabe\.gradle\caches\transforms-1\files-1.1\play-services-measurement-16.4.0.aar\5e2d875f6c969cb0426879996790384e\AndroidManifest.xml:17:1-55:12
MERGED from [com.google.android.gms:play-services-measurement-sdk:16.4.0] C:\Users\djabe\.gradle\caches\transforms-1\files-1.1\play-services-measurement-sdk-16.4.0.aar\8c939298cb6b1d38ab6f3afb0a86a82e\AndroidManifest.xml:17:1-25:12
MERGED from [com.google.android.gms:play-services-measurement-impl:16.4.0] C:\Users\djabe\.gradle\caches\transforms-1\files-1.1\play-services-measurement-impl-16.4.0.aar\37ca89f68a3e8d89833aadf889a8330e\AndroidManifest.xml:17:1-40:12
MERGED from [com.google.android.gms:play-services-measurement-sdk-api:16.4.0] C:\Users\djabe\.gradle\caches\transforms-1\files-1.1\play-services-measurement-sdk-api-16.4.0.aar\e898b4e49899c6ef9bcd4863de7c8418\AndroidManifest.xml:17:1-30:12
MERGED from [com.google.android.gms:play-services-measurement-base:16.4.0] C:\Users\djabe\.gradle\caches\transforms-1\files-1.1\play-services-measurement-base-16.4.0.aar\803a24be48665dfe1c23638cb093870e\AndroidManifest.xml:2:1-9:12
MERGED from [com.google.android.gms:play-services-stats:16.0.1] C:\Users\djabe\.gradle\caches\transforms-1\files-1.1\play-services-stats-16.0.1.aar\fbbcb4bba96da618b218ecd6bd959bf5\AndroidManifest.xml:2:1-9:12
MERGED from [com.google.firebase:firebase-measurement-connector:17.0.1] C:\Users\djabe\.gradle\caches\transforms-1\files-1.1\firebase-measurement-connector-17.0.1.aar\56570b871dcc887d83e1de2c622ed954\AndroidManifest.xml:17:1-25:12
MERGED from [com.google.android.gms:play-services-ads-identifier:16.0.0] C:\Users\djabe\.gradle\caches\transforms-1\files-1.1\play-services-ads-identifier-16.0.0.aar\7d486c7f0e574e65e1e6fbba4580febc\AndroidManifest.xml:17:1-24:12
MERGED from [com.google.android.gms:play-services-basement:16.2.0] C:\Users\djabe\.gradle\caches\transforms-1\files-1.1\play-services-basement-16.2.0.aar\6be401850ea8ba283a7203beacda9c1e\AndroidManifest.xml:17:1-28:12
MERGED from [com.android.support:support-v4:26.1.0] C:\Users\djabe\.gradle\caches\transforms-1\files-1.1\support-v4-26.1.0.aar\a4671259cb53db683e9748e5f9be6765\AndroidManifest.xml:17:1-31:12
MERGED from [com.android.support:animated-vector-drawable:26.1.0] C:\Users\djabe\.gradle\caches\transforms-1\files-1.1\animated-vector-drawable-26.1.0.aar\d38193bcf5230246ca27c244f20cee91\AndroidManifest.xml:17:1-28:12
MERGED from [com.android.support:support-vector-drawable:26.1.0] C:\Users\djabe\.gradle\caches\transforms-1\files-1.1\support-vector-drawable-26.1.0.aar\058e4c6586ca2882d0c92006803e5e05\AndroidManifest.xml:17:1-28:12
MERGED from [com.google.maps.android:android-maps-utils:0.5] C:\Users\djabe\.gradle\caches\transforms-1\files-1.1\android-maps-utils-0.5.aar\04678206a45fa31efa4bb545ca80d122\AndroidManifest.xml:2:1-13:12
MERGED from [com.jakewharton:butterknife:8.8.1] C:\Users\djabe\.gradle\caches\transforms-1\files-1.1\butterknife-8.8.1.aar\ce0d4217a1f142770d6094a82f80c9f9\AndroidManifest.xml:2:1-7:12
MERGED from [jp.wasabeef:glide-transformations:2.0.1] C:\Users\djabe\.gradle\caches\transforms-1\files-1.1\glide-transformations-2.0.1.aar\4e0d035f4c942bda9415dc4b10b411ed\AndroidManifest.xml:2:1-12:12
MERGED from [com.facebook.stetho:stetho:1.5.0] C:\Users\djabe\.gradle\caches\transforms-1\files-1.1\stetho-1.5.0.aar\64ffde54d5a5e252ee83d293a38db8b2\AndroidManifest.xml:2:1-13:12
MERGED from [com.android.support:support-fragment:26.1.0] C:\Users\djabe\.gradle\caches\transforms-1\files-1.1\support-fragment-26.1.0.aar\c36a838048260f74d19f2c452aa96e72\AndroidManifest.xml:17:1-31:12
MERGED from [com.android.support:support-core-ui:26.1.0] C:\Users\djabe\.gradle\caches\transforms-1\files-1.1\support-core-ui-26.1.0.aar\8e653f3b5f7b48f401a57b34fef675dc\AndroidManifest.xml:17:1-31:12
MERGED from [com.android.support:support-media-compat:26.1.0] C:\Users\djabe\.gradle\caches\transforms-1\files-1.1\support-media-compat-26.1.0.aar\c57f3de3b1f64188b93f0433668f93ee\AndroidManifest.xml:17:1-31:12
MERGED from [com.android.support:support-core-utils:26.1.0] C:\Users\djabe\.gradle\caches\transforms-1\files-1.1\support-core-utils-26.1.0.aar\08c39a4927af512e5547aca9e019fd25\AndroidManifest.xml:17:1-31:12
MERGED from [com.android.support:support-compat:26.1.0] C:\Users\djabe\.gradle\caches\transforms-1\files-1.1\support-compat-26.1.0.aar\f0c235f06e1984f2f8d6ed40b8e72a88\AndroidManifest.xml:17:1-31:12
MERGED from [android.arch.lifecycle:runtime:1.0.0] C:\Users\djabe\.gradle\caches\transforms-1\files-1.1\runtime-1.0.0.aar\5eb1be056809ed8c196944502ba0a9ef\AndroidManifest.xml:17:1-30:12
INJECTED from C:\Users\djabe\Documents\PSP_projekt\pbd2019-63160061\app\src\main\AndroidManifest.xml:2:1-93:12
INJECTED from C:\Users\djabe\Documents\PSP_projekt\pbd2019-63160061\app\src\main\AndroidManifest.xml:2:1-93:12
INJECTED from C:\Users\djabe\Documents\PSP_projekt\pbd2019-63160061\app\src\main\AndroidManifest.xml:2:1-93:12
	package
		ADDED from C:\Users\djabe\Documents\PSP_projekt\pbd2019-63160061\app\src\main\AndroidManifest.xml:4:5-43
		INJECTED from C:\Users\djabe\Documents\PSP_projekt\pbd2019-63160061\app\src\main\AndroidManifest.xml
		INJECTED from C:\Users\djabe\Documents\PSP_projekt\pbd2019-63160061\app\src\main\AndroidManifest.xml
	android:versionName
		INJECTED from C:\Users\djabe\Documents\PSP_projekt\pbd2019-63160061\app\src\main\AndroidManifest.xml
		ADDED from C:\Users\djabe\Documents\PSP_projekt\pbd2019-63160061\app\src\main\AndroidManifest.xml:2:1-93:12
		INJECTED from C:\Users\djabe\Documents\PSP_projekt\pbd2019-63160061\app\src\main\AndroidManifest.xml
	xmlns:tools
		ADDED from C:\Users\djabe\Documents\PSP_projekt\pbd2019-63160061\app\src\main\AndroidManifest.xml:3:5-51
	android:versionCode
		INJECTED from C:\Users\djabe\Documents\PSP_projekt\pbd2019-63160061\app\src\main\AndroidManifest.xml
		ADDED from C:\Users\djabe\Documents\PSP_projekt\pbd2019-63160061\app\src\main\AndroidManifest.xml:2:1-93:12
		INJECTED from C:\Users\djabe\Documents\PSP_projekt\pbd2019-63160061\app\src\main\AndroidManifest.xml
	xmlns:android
		ADDED from C:\Users\djabe\Documents\PSP_projekt\pbd2019-63160061\app\src\main\AndroidManifest.xml:2:11-69
uses-permission#android.permission.ACCESS_FINE_LOCATION
ADDED from C:\Users\djabe\Documents\PSP_projekt\pbd2019-63160061\app\src\main\AndroidManifest.xml:10:5-79
	android:name
		ADDED from C:\Users\djabe\Documents\PSP_projekt\pbd2019-63160061\app\src\main\AndroidManifest.xml:10:22-76
uses-permission#android.permission.VIBRATE
ADDED from C:\Users\djabe\Documents\PSP_projekt\pbd2019-63160061\app\src\main\AndroidManifest.xml:11:5-65
	android:name
		ADDED from C:\Users\djabe\Documents\PSP_projekt\pbd2019-63160061\app\src\main\AndroidManifest.xml:11:22-63
application
ADDED from C:\Users\djabe\Documents\PSP_projekt\pbd2019-63160061\app\src\main\AndroidManifest.xml:13:5-91:19
MERGED from [com.android.support:design:26.1.0] C:\Users\djabe\.gradle\caches\transforms-1\files-1.1\design-26.1.0.aar\cc21cdc3a58532517dac11e886814491\AndroidManifest.xml:25:5-29:19
MERGED from [com.android.support:design:26.1.0] C:\Users\djabe\.gradle\caches\transforms-1\files-1.1\design-26.1.0.aar\cc21cdc3a58532517dac11e886814491\AndroidManifest.xml:25:5-29:19
MERGED from [com.android.support:recyclerview-v7:26.1.0] C:\Users\djabe\.gradle\caches\transforms-1\files-1.1\recyclerview-v7-26.1.0.aar\f5783afa2ea0ff96b3fa7a8420041954\AndroidManifest.xml:22:5-26:19
MERGED from [com.android.support:recyclerview-v7:26.1.0] C:\Users\djabe\.gradle\caches\transforms-1\files-1.1\recyclerview-v7-26.1.0.aar\f5783afa2ea0ff96b3fa7a8420041954\AndroidManifest.xml:22:5-26:19
MERGED from [com.android.support:appcompat-v7:26.1.0] C:\Users\djabe\.gradle\caches\transforms-1\files-1.1\appcompat-v7-26.1.0.aar\56a20edf1eb82bd137306884d182a145\AndroidManifest.xml:25:5-29:19
MERGED from [com.android.support:appcompat-v7:26.1.0] C:\Users\djabe\.gradle\caches\transforms-1\files-1.1\appcompat-v7-26.1.0.aar\56a20edf1eb82bd137306884d182a145\AndroidManifest.xml:25:5-29:19
MERGED from [com.android.support.constraint:constraint-layout:1.0.2] C:\Users\djabe\.gradle\caches\transforms-1\files-1.1\constraint-layout-1.0.2.aar\08f8c726b749f63f2525975f2d15f7bf\AndroidManifest.xml:9:5-20
MERGED from [com.android.support.constraint:constraint-layout:1.0.2] C:\Users\djabe\.gradle\caches\transforms-1\files-1.1\constraint-layout-1.0.2.aar\08f8c726b749f63f2525975f2d15f7bf\AndroidManifest.xml:9:5-20
MERGED from [com.android.support:transition:26.1.0] C:\Users\djabe\.gradle\caches\transforms-1\files-1.1\transition-26.1.0.aar\60949e17b8de583420b658b27705d05e\AndroidManifest.xml:22:5-26:19
MERGED from [com.android.support:transition:26.1.0] C:\Users\djabe\.gradle\caches\transforms-1\files-1.1\transition-26.1.0.aar\60949e17b8de583420b658b27705d05e\AndroidManifest.xml:22:5-26:19
MERGED from [com.google.android.gms:play-services-maps:16.0.0] C:\Users\djabe\.gradle\caches\transforms-1\files-1.1\play-services-maps-16.0.0.aar\0045a2ee2904959558bfb03ffa201b7e\AndroidManifest.xml:30:5-20
MERGED from [com.google.android.gms:play-services-maps:16.0.0] C:\Users\djabe\.gradle\caches\transforms-1\files-1.1\play-services-maps-16.0.0.aar\0045a2ee2904959558bfb03ffa201b7e\AndroidManifest.xml:30:5-20
MERGED from [com.google.android.gms:play-services-plus:16.0.0] C:\Users\djabe\.gradle\caches\transforms-1\files-1.1\play-services-plus-16.0.0.aar\c3d4039e722f7739aab6c4a915c4e8e3\AndroidManifest.xml:22:5-20
MERGED from [com.google.android.gms:play-services-plus:16.0.0] C:\Users\djabe\.gradle\caches\transforms-1\files-1.1\play-services-plus-16.0.0.aar\c3d4039e722f7739aab6c4a915c4e8e3\AndroidManifest.xml:22:5-20
MERGED from [com.google.android.gms:play-services-auth:16.0.0] C:\Users\djabe\.gradle\caches\transforms-1\files-1.1\play-services-auth-16.0.0.aar\4755207fa91ffceeb8e79fcf6910b3dd\AndroidManifest.xml:22:5-37:19
MERGED from [com.google.android.gms:play-services-auth:16.0.0] C:\Users\djabe\.gradle\caches\transforms-1\files-1.1\play-services-auth-16.0.0.aar\4755207fa91ffceeb8e79fcf6910b3dd\AndroidManifest.xml:22:5-37:19
MERGED from [com.google.android.gms:play-services-identity:16.0.0] C:\Users\djabe\.gradle\caches\transforms-1\files-1.1\play-services-identity-16.0.0.aar\753ba42992b898ca5fc2030a535eda53\AndroidManifest.xml:22:5-20
MERGED from [com.google.android.gms:play-services-identity:16.0.0] C:\Users\djabe\.gradle\caches\transforms-1\files-1.1\play-services-identity-16.0.0.aar\753ba42992b898ca5fc2030a535eda53\AndroidManifest.xml:22:5-20
MERGED from [com.google.android.gms:play-services-location:16.0.0] C:\Users\djabe\.gradle\caches\transforms-1\files-1.1\play-services-location-16.0.0.aar\74b4555b0ca20556824f79d7485ff271\AndroidManifest.xml:7:5-20
MERGED from [com.google.android.gms:play-services-location:16.0.0] C:\Users\djabe\.gradle\caches\transforms-1\files-1.1\play-services-location-16.0.0.aar\74b4555b0ca20556824f79d7485ff271\AndroidManifest.xml:7:5-20
MERGED from [com.google.firebase:firebase-auth:16.2.1] C:\Users\djabe\.gradle\caches\transforms-1\files-1.1\firebase-auth-16.2.1.aar\9459f1ea7fa148533eadc713e776278b\AndroidManifest.xml:23:5-40:19
MERGED from [com.google.firebase:firebase-auth:16.2.1] C:\Users\djabe\.gradle\caches\transforms-1\files-1.1\firebase-auth-16.2.1.aar\9459f1ea7fa148533eadc713e776278b\AndroidManifest.xml:23:5-40:19
MERGED from [com.google.android.gms:play-services-audience:16.0.0] C:\Users\djabe\.gradle\caches\transforms-1\files-1.1\play-services-audience-16.0.0.aar\1c846aa391e64a25f68ea48c9f1878e4\AndroidManifest.xml:22:5-20
MERGED from [com.google.android.gms:play-services-audience:16.0.0] C:\Users\djabe\.gradle\caches\transforms-1\files-1.1\play-services-audience-16.0.0.aar\1c846aa391e64a25f68ea48c9f1878e4\AndroidManifest.xml:22:5-20
MERGED from [com.google.firebase:firebase-auth-interop:16.0.1] C:\Users\djabe\.gradle\caches\transforms-1\files-1.1\firebase-auth-interop-16.0.1.aar\b1e75233d3ba176dfbdacfe5909ab132\AndroidManifest.xml:7:5-8:19
MERGED from [com.google.firebase:firebase-auth-interop:16.0.1] C:\Users\djabe\.gradle\caches\transforms-1\files-1.1\firebase-auth-interop-16.0.1.aar\b1e75233d3ba176dfbdacfe5909ab132\AndroidManifest.xml:7:5-8:19
MERGED from [com.google.firebase:firebase-core:16.0.8] C:\Users\djabe\.gradle\caches\transforms-1\files-1.1\firebase-core-16.0.8.aar\9b9a8396ccc422efba2e92f026506170\AndroidManifest.xml:7:5-20
MERGED from [com.google.firebase:firebase-core:16.0.8] C:\Users\djabe\.gradle\caches\transforms-1\files-1.1\firebase-core-16.0.8.aar\9b9a8396ccc422efba2e92f026506170\AndroidManifest.xml:7:5-20
MERGED from [com.google.firebase:firebase-analytics:16.4.0] C:\Users\djabe\.gradle\caches\transforms-1\files-1.1\firebase-analytics-16.4.0.aar\52d838cf5f1bea449ef95db72d69aa30\AndroidManifest.xml:7:5-20
MERGED from [com.google.firebase:firebase-analytics:16.4.0] C:\Users\djabe\.gradle\caches\transforms-1\files-1.1\firebase-analytics-16.4.0.aar\52d838cf5f1bea449ef95db72d69aa30\AndroidManifest.xml:7:5-20
MERGED from [com.google.android.gms:play-services-measurement-api:16.4.0] C:\Users\djabe\.gradle\caches\transforms-1\files-1.1\play-services-measurement-api-16.4.0.aar\9d08d59d65378d907f20387f13dfac43\AndroidManifest.xml:26:5-34:19
MERGED from [com.google.android.gms:play-services-measurement-api:16.4.0] C:\Users\djabe\.gradle\caches\transforms-1\files-1.1\play-services-measurement-api-16.4.0.aar\9d08d59d65378d907f20387f13dfac43\AndroidManifest.xml:26:5-34:19
MERGED from [com.google.firebase:firebase-iid:17.0.3] C:\Users\djabe\.gradle\caches\transforms-1\files-1.1\firebase-iid-17.0.3.aar\636052267cce5816696d8846080cf555\AndroidManifest.xml:28:5-57:19
MERGED from [com.google.firebase:firebase-iid:17.0.3] C:\Users\djabe\.gradle\caches\transforms-1\files-1.1\firebase-iid-17.0.3.aar\636052267cce5816696d8846080cf555\AndroidManifest.xml:28:5-57:19
MERGED from [com.google.firebase:firebase-iid-interop:16.0.1] C:\Users\djabe\.gradle\caches\transforms-1\files-1.1\firebase-iid-interop-16.0.1.aar\27deb06d71f465f726416a712b97d40e\AndroidManifest.xml:7:5-8:19
MERGED from [com.google.firebase:firebase-iid-interop:16.0.1] C:\Users\djabe\.gradle\caches\transforms-1\files-1.1\firebase-iid-interop-16.0.1.aar\27deb06d71f465f726416a712b97d40e\AndroidManifest.xml:7:5-8:19
MERGED from [com.google.android.gms:play-services-base:16.0.1] C:\Users\djabe\.gradle\caches\transforms-1\files-1.1\play-services-base-16.0.1.aar\d0fb6a125e7bcb6dcef86fff31875a31\AndroidManifest.xml:22:5-27:19
MERGED from [com.google.android.gms:play-services-base:16.0.1] C:\Users\djabe\.gradle\caches\transforms-1\files-1.1\play-services-base-16.0.1.aar\d0fb6a125e7bcb6dcef86fff31875a31\AndroidManifest.xml:22:5-27:19
MERGED from [com.google.firebase:firebase-common:16.0.3] C:\Users\djabe\.gradle\caches\transforms-1\files-1.1\firebase-common-16.0.3.aar\f35f38e4593cdf092f7ffa9f76a7dbad\AndroidManifest.xml:9:5-15:19
MERGED from [com.google.firebase:firebase-common:16.0.3] C:\Users\djabe\.gradle\caches\transforms-1\files-1.1\firebase-common-16.0.3.aar\f35f38e4593cdf092f7ffa9f76a7dbad\AndroidManifest.xml:9:5-15:19
MERGED from [com.google.android.gms:play-services-tasks:16.0.1] C:\Users\djabe\.gradle\caches\transforms-1\files-1.1\play-services-tasks-16.0.1.aar\57f9a0a3fc6e6fc40dfd302aaebccb90\AndroidManifest.xml:7:5-20
MERGED from [com.google.android.gms:play-services-tasks:16.0.1] C:\Users\djabe\.gradle\caches\transforms-1\files-1.1\play-services-tasks-16.0.1.aar\57f9a0a3fc6e6fc40dfd302aaebccb90\AndroidManifest.xml:7:5-20
MERGED from [com.google.android.gms:play-services-places-placereport:16.0.0] C:\Users\djabe\.gradle\caches\transforms-1\files-1.1\play-services-places-placereport-16.0.0.aar\90a65ed6d57e3e1cce95400acbd04980\AndroidManifest.xml:22:5-20
MERGED from [com.google.android.gms:play-services-places-placereport:16.0.0] C:\Users\djabe\.gradle\caches\transforms-1\files-1.1\play-services-places-placereport-16.0.0.aar\90a65ed6d57e3e1cce95400acbd04980\AndroidManifest.xml:22:5-20
MERGED from [com.google.android.gms:play-services-measurement:16.4.0] C:\Users\djabe\.gradle\caches\transforms-1\files-1.1\play-services-measurement-16.4.0.aar\5e2d875f6c969cb0426879996790384e\AndroidManifest.xml:28:5-53:19
MERGED from [com.google.android.gms:play-services-measurement:16.4.0] C:\Users\djabe\.gradle\caches\transforms-1\files-1.1\play-services-measurement-16.4.0.aar\5e2d875f6c969cb0426879996790384e\AndroidManifest.xml:28:5-53:19
MERGED from [com.google.android.gms:play-services-measurement-sdk:16.4.0] C:\Users\djabe\.gradle\caches\transforms-1\files-1.1\play-services-measurement-sdk-16.4.0.aar\8c939298cb6b1d38ab6f3afb0a86a82e\AndroidManifest.xml:22:5-23:19
MERGED from [com.google.android.gms:play-services-measurement-sdk:16.4.0] C:\Users\djabe\.gradle\caches\transforms-1\files-1.1\play-services-measurement-sdk-16.4.0.aar\8c939298cb6b1d38ab6f3afb0a86a82e\AndroidManifest.xml:22:5-23:19
MERGED from [com.google.android.gms:play-services-measurement-impl:16.4.0] C:\Users\djabe\.gradle\caches\transforms-1\files-1.1\play-services-measurement-impl-16.4.0.aar\37ca89f68a3e8d89833aadf889a8330e\AndroidManifest.xml:28:5-38:19
MERGED from [com.google.android.gms:play-services-measurement-impl:16.4.0] C:\Users\djabe\.gradle\caches\transforms-1\files-1.1\play-services-measurement-impl-16.4.0.aar\37ca89f68a3e8d89833aadf889a8330e\AndroidManifest.xml:28:5-38:19
MERGED from [com.google.android.gms:play-services-measurement-sdk-api:16.4.0] C:\Users\djabe\.gradle\caches\transforms-1\files-1.1\play-services-measurement-sdk-api-16.4.0.aar\e898b4e49899c6ef9bcd4863de7c8418\AndroidManifest.xml:27:5-28:19
MERGED from [com.google.android.gms:play-services-measurement-sdk-api:16.4.0] C:\Users\djabe\.gradle\caches\transforms-1\files-1.1\play-services-measurement-sdk-api-16.4.0.aar\e898b4e49899c6ef9bcd4863de7c8418\AndroidManifest.xml:27:5-28:19
MERGED from [com.google.android.gms:play-services-measurement-base:16.4.0] C:\Users\djabe\.gradle\caches\transforms-1\files-1.1\play-services-measurement-base-16.4.0.aar\803a24be48665dfe1c23638cb093870e\AndroidManifest.xml:7:5-20
MERGED from [com.google.android.gms:play-services-measurement-base:16.4.0] C:\Users\djabe\.gradle\caches\transforms-1\files-1.1\play-services-measurement-base-16.4.0.aar\803a24be48665dfe1c23638cb093870e\AndroidManifest.xml:7:5-20
MERGED from [com.google.android.gms:play-services-stats:16.0.1] C:\Users\djabe\.gradle\caches\transforms-1\files-1.1\play-services-stats-16.0.1.aar\fbbcb4bba96da618b218ecd6bd959bf5\AndroidManifest.xml:7:5-20
MERGED from [com.google.android.gms:play-services-stats:16.0.1] C:\Users\djabe\.gradle\caches\transforms-1\files-1.1\play-services-stats-16.0.1.aar\fbbcb4bba96da618b218ecd6bd959bf5\AndroidManifest.xml:7:5-20
MERGED from [com.google.firebase:firebase-measurement-connector:17.0.1] C:\Users\djabe\.gradle\caches\transforms-1\files-1.1\firebase-measurement-connector-17.0.1.aar\56570b871dcc887d83e1de2c622ed954\AndroidManifest.xml:22:5-23:19
MERGED from [com.google.firebase:firebase-measurement-connector:17.0.1] C:\Users\djabe\.gradle\caches\transforms-1\files-1.1\firebase-measurement-connector-17.0.1.aar\56570b871dcc887d83e1de2c622ed954\AndroidManifest.xml:22:5-23:19
MERGED from [com.google.android.gms:play-services-ads-identifier:16.0.0] C:\Users\djabe\.gradle\caches\transforms-1\files-1.1\play-services-ads-identifier-16.0.0.aar\7d486c7f0e574e65e1e6fbba4580febc\AndroidManifest.xml:22:5-20
MERGED from [com.google.android.gms:play-services-ads-identifier:16.0.0] C:\Users\djabe\.gradle\caches\transforms-1\files-1.1\play-services-ads-identifier-16.0.0.aar\7d486c7f0e574e65e1e6fbba4580febc\AndroidManifest.xml:22:5-20
MERGED from [com.google.android.gms:play-services-basement:16.2.0] C:\Users\djabe\.gradle\caches\transforms-1\files-1.1\play-services-basement-16.2.0.aar\6be401850ea8ba283a7203beacda9c1e\AndroidManifest.xml:22:5-26:19
MERGED from [com.google.android.gms:play-services-basement:16.2.0] C:\Users\djabe\.gradle\caches\transforms-1\files-1.1\play-services-basement-16.2.0.aar\6be401850ea8ba283a7203beacda9c1e\AndroidManifest.xml:22:5-26:19
MERGED from [com.android.support:support-v4:26.1.0] C:\Users\djabe\.gradle\caches\transforms-1\files-1.1\support-v4-26.1.0.aar\a4671259cb53db683e9748e5f9be6765\AndroidManifest.xml:25:5-29:19
MERGED from [com.android.support:support-v4:26.1.0] C:\Users\djabe\.gradle\caches\transforms-1\files-1.1\support-v4-26.1.0.aar\a4671259cb53db683e9748e5f9be6765\AndroidManifest.xml:25:5-29:19
MERGED from [com.android.support:animated-vector-drawable:26.1.0] C:\Users\djabe\.gradle\caches\transforms-1\files-1.1\animated-vector-drawable-26.1.0.aar\d38193bcf5230246ca27c244f20cee91\AndroidManifest.xml:22:5-26:19
MERGED from [com.android.support:animated-vector-drawable:26.1.0] C:\Users\djabe\.gradle\caches\transforms-1\files-1.1\animated-vector-drawable-26.1.0.aar\d38193bcf5230246ca27c244f20cee91\AndroidManifest.xml:22:5-26:19
MERGED from [com.android.support:support-vector-drawable:26.1.0] C:\Users\djabe\.gradle\caches\transforms-1\files-1.1\support-vector-drawable-26.1.0.aar\058e4c6586ca2882d0c92006803e5e05\AndroidManifest.xml:22:5-26:19
MERGED from [com.android.support:support-vector-drawable:26.1.0] C:\Users\djabe\.gradle\caches\transforms-1\files-1.1\support-vector-drawable-26.1.0.aar\058e4c6586ca2882d0c92006803e5e05\AndroidManifest.xml:22:5-26:19
MERGED from [com.google.maps.android:android-maps-utils:0.5] C:\Users\djabe\.gradle\caches\transforms-1\files-1.1\android-maps-utils-0.5.aar\04678206a45fa31efa4bb545ca80d122\AndroidManifest.xml:7:5-11:19
MERGED from [com.google.maps.android:android-maps-utils:0.5] C:\Users\djabe\.gradle\caches\transforms-1\files-1.1\android-maps-utils-0.5.aar\04678206a45fa31efa4bb545ca80d122\AndroidManifest.xml:7:5-11:19
MERGED from [com.facebook.stetho:stetho:1.5.0] C:\Users\djabe\.gradle\caches\transforms-1\files-1.1\stetho-1.5.0.aar\64ffde54d5a5e252ee83d293a38db8b2\AndroidManifest.xml:11:5-20
MERGED from [com.facebook.stetho:stetho:1.5.0] C:\Users\djabe\.gradle\caches\transforms-1\files-1.1\stetho-1.5.0.aar\64ffde54d5a5e252ee83d293a38db8b2\AndroidManifest.xml:11:5-20
MERGED from [com.android.support:support-fragment:26.1.0] C:\Users\djabe\.gradle\caches\transforms-1\files-1.1\support-fragment-26.1.0.aar\c36a838048260f74d19f2c452aa96e72\AndroidManifest.xml:25:5-29:19
MERGED from [com.android.support:support-fragment:26.1.0] C:\Users\djabe\.gradle\caches\transforms-1\files-1.1\support-fragment-26.1.0.aar\c36a838048260f74d19f2c452aa96e72\AndroidManifest.xml:25:5-29:19
MERGED from [com.android.support:support-core-ui:26.1.0] C:\Users\djabe\.gradle\caches\transforms-1\files-1.1\support-core-ui-26.1.0.aar\8e653f3b5f7b48f401a57b34fef675dc\AndroidManifest.xml:25:5-29:19
MERGED from [com.android.support:support-core-ui:26.1.0] C:\Users\djabe\.gradle\caches\transforms-1\files-1.1\support-core-ui-26.1.0.aar\8e653f3b5f7b48f401a57b34fef675dc\AndroidManifest.xml:25:5-29:19
MERGED from [com.android.support:support-media-compat:26.1.0] C:\Users\djabe\.gradle\caches\transforms-1\files-1.1\support-media-compat-26.1.0.aar\c57f3de3b1f64188b93f0433668f93ee\AndroidManifest.xml:25:5-29:19
MERGED from [com.android.support:support-media-compat:26.1.0] C:\Users\djabe\.gradle\caches\transforms-1\files-1.1\support-media-compat-26.1.0.aar\c57f3de3b1f64188b93f0433668f93ee\AndroidManifest.xml:25:5-29:19
MERGED from [com.android.support:support-core-utils:26.1.0] C:\Users\djabe\.gradle\caches\transforms-1\files-1.1\support-core-utils-26.1.0.aar\08c39a4927af512e5547aca9e019fd25\AndroidManifest.xml:25:5-29:19
MERGED from [com.android.support:support-core-utils:26.1.0] C:\Users\djabe\.gradle\caches\transforms-1\files-1.1\support-core-utils-26.1.0.aar\08c39a4927af512e5547aca9e019fd25\AndroidManifest.xml:25:5-29:19
MERGED from [com.android.support:support-compat:26.1.0] C:\Users\djabe\.gradle\caches\transforms-1\files-1.1\support-compat-26.1.0.aar\f0c235f06e1984f2f8d6ed40b8e72a88\AndroidManifest.xml:25:5-29:19
MERGED from [com.android.support:support-compat:26.1.0] C:\Users\djabe\.gradle\caches\transforms-1\files-1.1\support-compat-26.1.0.aar\f0c235f06e1984f2f8d6ed40b8e72a88\AndroidManifest.xml:25:5-29:19
MERGED from [android.arch.lifecycle:runtime:1.0.0] C:\Users\djabe\.gradle\caches\transforms-1\files-1.1\runtime-1.0.0.aar\5eb1be056809ed8c196944502ba0a9ef\AndroidManifest.xml:24:5-28:19
MERGED from [android.arch.lifecycle:runtime:1.0.0] C:\Users\djabe\.gradle\caches\transforms-1\files-1.1\runtime-1.0.0.aar\5eb1be056809ed8c196944502ba0a9ef\AndroidManifest.xml:24:5-28:19
	android:supportsRtl
		ADDED from C:\Users\djabe\Documents\PSP_projekt\pbd2019-63160061\app\src\main\AndroidManifest.xml:18:9-35
	android:label
		ADDED from C:\Users\djabe\Documents\PSP_projekt\pbd2019-63160061\app\src\main\AndroidManifest.xml:16:9-41
	tools:ignore
		ADDED from C:\Users\djabe\Documents\PSP_projekt\pbd2019-63160061\app\src\main\AndroidManifest.xml:20:9-48
	android:roundIcon
		ADDED from C:\Users\djabe\Documents\PSP_projekt\pbd2019-63160061\app\src\main\AndroidManifest.xml:17:9-54
	android:icon
		ADDED from C:\Users\djabe\Documents\PSP_projekt\pbd2019-63160061\app\src\main\AndroidManifest.xml:15:9-43
	android:allowBackup
		ADDED from C:\Users\djabe\Documents\PSP_projekt\pbd2019-63160061\app\src\main\AndroidManifest.xml:14:9-35
	android:theme
		ADDED from C:\Users\djabe\Documents\PSP_projekt\pbd2019-63160061\app\src\main\AndroidManifest.xml:19:9-40
activity#si.uni_lj.fri.pbd2019.runsup.HighScoresActivity
ADDED from C:\Users\djabe\Documents\PSP_projekt\pbd2019-63160061\app\src\main\AndroidManifest.xml:21:9-23:63
	android:parentActivityName
		ADDED from C:\Users\djabe\Documents\PSP_projekt\pbd2019-63160061\app\src\main\AndroidManifest.xml:23:13-60
	android:label
		ADDED from C:\Users\djabe\Documents\PSP_projekt\pbd2019-63160061\app\src\main\AndroidManifest.xml:22:13-40
	android:name
		ADDED from C:\Users\djabe\Documents\PSP_projekt\pbd2019-63160061\app\src\main\AndroidManifest.xml:21:19-53
activity#si.uni_lj.fri.pbd2019.runsup.InstructionsActivity
ADDED from C:\Users\djabe\Documents\PSP_projekt\pbd2019-63160061\app\src\main\AndroidManifest.xml:24:9-27:63
	android:parentActivityName
		ADDED from C:\Users\djabe\Documents\PSP_projekt\pbd2019-63160061\app\src\main\AndroidManifest.xml:27:13-60
	android:label
		ADDED from C:\Users\djabe\Documents\PSP_projekt\pbd2019-63160061\app\src\main\AndroidManifest.xml:26:13-41
	android:name
		ADDED from C:\Users\djabe\Documents\PSP_projekt\pbd2019-63160061\app\src\main\AndroidManifest.xml:25:13-49
activity#si.uni_lj.fri.pbd2019.runsup.AdvantureActivity
ADDED from C:\Users\djabe\Documents\PSP_projekt\pbd2019-63160061\app\src\main\AndroidManifest.xml:28:9-34:20
	android:screenOrientation
		ADDED from C:\Users\djabe\Documents\PSP_projekt\pbd2019-63160061\app\src\main\AndroidManifest.xml:30:13-49
	android:name
		ADDED from C:\Users\djabe\Documents\PSP_projekt\pbd2019-63160061\app\src\main\AndroidManifest.xml:29:13-46
intent-filter#action:name:android.intent.action.MAIN
ADDED from C:\Users\djabe\Documents\PSP_projekt\pbd2019-63160061\app\src\main\AndroidManifest.xml:31:13-33:29
action#android.intent.action.MAIN
ADDED from C:\Users\djabe\Documents\PSP_projekt\pbd2019-63160061\app\src\main\AndroidManifest.xml:32:17-69
	android:name
		ADDED from C:\Users\djabe\Documents\PSP_projekt\pbd2019-63160061\app\src\main\AndroidManifest.xml:32:25-66
activity#si.uni_lj.fri.pbd2019.runsup.settings.SettingsActivity
ADDED from C:\Users\djabe\Documents\PSP_projekt\pbd2019-63160061\app\src\main\AndroidManifest.xml:35:9-37:58
	android:parentActivityName
		ADDED from C:\Users\djabe\Documents\PSP_projekt\pbd2019-63160061\app\src\main\AndroidManifest.xml:37:13-55
	android:name
		ADDED from C:\Users\djabe\Documents\PSP_projekt\pbd2019-63160061\app\src\main\AndroidManifest.xml:36:13-54
activity#si.uni_lj.fri.pbd2019.runsup.LoginActivity
ADDED from C:\Users\djabe\Documents\PSP_projekt\pbd2019-63160061\app\src\main\AndroidManifest.xml:38:9-40:58
	android:parentActivityName
		ADDED from C:\Users\djabe\Documents\PSP_projekt\pbd2019-63160061\app\src\main\AndroidManifest.xml:40:13-55
	android:name
		ADDED from C:\Users\djabe\Documents\PSP_projekt\pbd2019-63160061\app\src\main\AndroidManifest.xml:39:13-42
activity#si.uni_lj.fri.pbd2019.runsup.MainActivity
ADDED from C:\Users\djabe\Documents\PSP_projekt\pbd2019-63160061\app\src\main\AndroidManifest.xml:41:9-50:20
	android:label
		ADDED from C:\Users\djabe\Documents\PSP_projekt\pbd2019-63160061\app\src\main\AndroidManifest.xml:43:13-56
	android:theme
		ADDED from C:\Users\djabe\Documents\PSP_projekt\pbd2019-63160061\app\src\main\AndroidManifest.xml:44:13-56
	android:name
		ADDED from C:\Users\djabe\Documents\PSP_projekt\pbd2019-63160061\app\src\main\AndroidManifest.xml:42:13-41
intent-filter#action:name:android.intent.action.MAIN+category:name:android.intent.category.LAUNCHER
ADDED from C:\Users\djabe\Documents\PSP_projekt\pbd2019-63160061\app\src\main\AndroidManifest.xml:45:13-49:29
category#android.intent.category.LAUNCHER
ADDED from C:\Users\djabe\Documents\PSP_projekt\pbd2019-63160061\app\src\main\AndroidManifest.xml:48:17-77
	android:name
		ADDED from C:\Users\djabe\Documents\PSP_projekt\pbd2019-63160061\app\src\main\AndroidManifest.xml:48:27-74
meta-data#com.google.android.geo.API_KEY
ADDED from C:\Users\djabe\Documents\PSP_projekt\pbd2019-63160061\app\src\main\AndroidManifest.xml:59:9-61:55
	android:value
		ADDED from C:\Users\djabe\Documents\PSP_projekt\pbd2019-63160061\app\src\main\AndroidManifest.xml:61:13-52
	android:name
		ADDED from C:\Users\djabe\Documents\PSP_projekt\pbd2019-63160061\app\src\main\AndroidManifest.xml:60:13-58
activity#si.uni_lj.fri.pbd2019.runsup.ActiveWorkoutMapActivity
ADDED from C:\Users\djabe\Documents\PSP_projekt\pbd2019-63160061\app\src\main\AndroidManifest.xml:63:9-65:73
	android:label
		ADDED from C:\Users\djabe\Documents\PSP_projekt\pbd2019-63160061\app\src\main\AndroidManifest.xml:65:13-70
	android:name
		ADDED from C:\Users\djabe\Documents\PSP_projekt\pbd2019-63160061\app\src\main\AndroidManifest.xml:64:13-53
activity#si.uni_lj.fri.pbd2019.runsup.WorkoutDetailActivity
ADDED from C:\Users\djabe\Documents\PSP_projekt\pbd2019-63160061\app\src\main\AndroidManifest.xml:66:9-70:20
	android:name
		ADDED from C:\Users\djabe\Documents\PSP_projekt\pbd2019-63160061\app\src\main\AndroidManifest.xml:66:19-56
activity#si.uni_lj.fri.pbd2019.runsup.StopwatchActivity
ADDED from C:\Users\djabe\Documents\PSP_projekt\pbd2019-63160061\app\src\main\AndroidManifest.xml:71:9-77:20
	android:screenOrientation
		ADDED from C:\Users\djabe\Documents\PSP_projekt\pbd2019-63160061\app\src\main\AndroidManifest.xml:73:13-49
	android:name
		ADDED from C:\Users\djabe\Documents\PSP_projekt\pbd2019-63160061\app\src\main\AndroidManifest.xml:72:13-46
activity#si.uni_lj.fri.pbd2019.runsup.AdvantureMapActivity
ADDED from C:\Users\djabe\Documents\PSP_projekt\pbd2019-63160061\app\src\main\AndroidManifest.xml:78:9-80:52
	android:screenOrientation
		ADDED from C:\Users\djabe\Documents\PSP_projekt\pbd2019-63160061\app\src\main\AndroidManifest.xml:80:13-49
	android:name
		ADDED from C:\Users\djabe\Documents\PSP_projekt\pbd2019-63160061\app\src\main\AndroidManifest.xml:79:13-49
activity#si.uni_lj.fri.pbd2019.runsup.MapsActivity
ADDED from C:\Users\djabe\Documents\PSP_projekt\pbd2019-63160061\app\src\main\AndroidManifest.xml:81:9-87:20
	android:label
		ADDED from C:\Users\djabe\Documents\PSP_projekt\pbd2019-63160061\app\src\main\AndroidManifest.xml:83:13-56
	android:name
		ADDED from C:\Users\djabe\Documents\PSP_projekt\pbd2019-63160061\app\src\main\AndroidManifest.xml:82:13-41
service#si.uni_lj.fri.pbd2019.runsup.services.TrackerService
ADDED from C:\Users\djabe\Documents\PSP_projekt\pbd2019-63160061\app\src\main\AndroidManifest.xml:89:9-60
	android:name
		ADDED from C:\Users\djabe\Documents\PSP_projekt\pbd2019-63160061\app\src\main\AndroidManifest.xml:89:18-57
service#si.uni_lj.fri.pbd2019.runsup.services.AdvantureService
ADDED from C:\Users\djabe\Documents\PSP_projekt\pbd2019-63160061\app\src\main\AndroidManifest.xml:90:9-62
	android:name
		ADDED from C:\Users\djabe\Documents\PSP_projekt\pbd2019-63160061\app\src\main\AndroidManifest.xml:90:18-59
uses-sdk
INJECTED from C:\Users\djabe\Documents\PSP_projekt\pbd2019-63160061\app\src\main\AndroidManifest.xml reason: use-sdk injection requested
INJECTED from C:\Users\djabe\Documents\PSP_projekt\pbd2019-63160061\app\src\main\AndroidManifest.xml
INJECTED from C:\Users\djabe\Documents\PSP_projekt\pbd2019-63160061\app\src\main\AndroidManifest.xml
MERGED from [com.android.support:design:26.1.0] C:\Users\djabe\.gradle\caches\transforms-1\files-1.1\design-26.1.0.aar\cc21cdc3a58532517dac11e886814491\AndroidManifest.xml:21:5-23:62
MERGED from [com.android.support:design:26.1.0] C:\Users\djabe\.gradle\caches\transforms-1\files-1.1\design-26.1.0.aar\cc21cdc3a58532517dac11e886814491\AndroidManifest.xml:21:5-23:62
MERGED from [com.android.support:recyclerview-v7:26.1.0] C:\Users\djabe\.gradle\caches\transforms-1\files-1.1\recyclerview-v7-26.1.0.aar\f5783afa2ea0ff96b3fa7a8420041954\AndroidManifest.xml:20:5-44
MERGED from [com.android.support:recyclerview-v7:26.1.0] C:\Users\djabe\.gradle\caches\transforms-1\files-1.1\recyclerview-v7-26.1.0.aar\f5783afa2ea0ff96b3fa7a8420041954\AndroidManifest.xml:20:5-44
MERGED from [com.android.support:appcompat-v7:26.1.0] C:\Users\djabe\.gradle\caches\transforms-1\files-1.1\appcompat-v7-26.1.0.aar\56a20edf1eb82bd137306884d182a145\AndroidManifest.xml:21:5-23:78
MERGED from [com.android.support:appcompat-v7:26.1.0] C:\Users\djabe\.gradle\caches\transforms-1\files-1.1\appcompat-v7-26.1.0.aar\56a20edf1eb82bd137306884d182a145\AndroidManifest.xml:21:5-23:78
MERGED from [com.android.support.constraint:constraint-layout:1.0.2] C:\Users\djabe\.gradle\caches\transforms-1\files-1.1\constraint-layout-1.0.2.aar\08f8c726b749f63f2525975f2d15f7bf\AndroidManifest.xml:5:5-7:41
MERGED from [com.android.support.constraint:constraint-layout:1.0.2] C:\Users\djabe\.gradle\caches\transforms-1\files-1.1\constraint-layout-1.0.2.aar\08f8c726b749f63f2525975f2d15f7bf\AndroidManifest.xml:5:5-7:41
MERGED from [com.android.support:transition:26.1.0] C:\Users\djabe\.gradle\caches\transforms-1\files-1.1\transition-26.1.0.aar\60949e17b8de583420b658b27705d05e\AndroidManifest.xml:20:5-44
MERGED from [com.android.support:transition:26.1.0] C:\Users\djabe\.gradle\caches\transforms-1\files-1.1\transition-26.1.0.aar\60949e17b8de583420b658b27705d05e\AndroidManifest.xml:20:5-44
MERGED from [com.google.android.gms:play-services-maps:16.0.0] C:\Users\djabe\.gradle\caches\transforms-1\files-1.1\play-services-maps-16.0.0.aar\0045a2ee2904959558bfb03ffa201b7e\AndroidManifest.xml:20:5-44
MERGED from [com.google.android.gms:play-services-maps:16.0.0] C:\Users\djabe\.gradle\caches\transforms-1\files-1.1\play-services-maps-16.0.0.aar\0045a2ee2904959558bfb03ffa201b7e\AndroidManifest.xml:20:5-44
MERGED from [com.google.android.gms:play-services-plus:16.0.0] C:\Users\djabe\.gradle\caches\transforms-1\files-1.1\play-services-plus-16.0.0.aar\c3d4039e722f7739aab6c4a915c4e8e3\AndroidManifest.xml:20:5-44
MERGED from [com.google.android.gms:play-services-plus:16.0.0] C:\Users\djabe\.gradle\caches\transforms-1\files-1.1\play-services-plus-16.0.0.aar\c3d4039e722f7739aab6c4a915c4e8e3\AndroidManifest.xml:20:5-44
MERGED from [com.google.android.gms:play-services-auth:16.0.0] C:\Users\djabe\.gradle\caches\transforms-1\files-1.1\play-services-auth-16.0.0.aar\4755207fa91ffceeb8e79fcf6910b3dd\AndroidManifest.xml:20:5-44
MERGED from [com.google.android.gms:play-services-auth:16.0.0] C:\Users\djabe\.gradle\caches\transforms-1\files-1.1\play-services-auth-16.0.0.aar\4755207fa91ffceeb8e79fcf6910b3dd\AndroidManifest.xml:20:5-44
MERGED from [com.google.android.gms:play-services-identity:16.0.0] C:\Users\djabe\.gradle\caches\transforms-1\files-1.1\play-services-identity-16.0.0.aar\753ba42992b898ca5fc2030a535eda53\AndroidManifest.xml:20:5-44
MERGED from [com.google.android.gms:play-services-identity:16.0.0] C:\Users\djabe\.gradle\caches\transforms-1\files-1.1\play-services-identity-16.0.0.aar\753ba42992b898ca5fc2030a535eda53\AndroidManifest.xml:20:5-44
MERGED from [com.google.android.gms:play-services-location:16.0.0] C:\Users\djabe\.gradle\caches\transforms-1\files-1.1\play-services-location-16.0.0.aar\74b4555b0ca20556824f79d7485ff271\AndroidManifest.xml:5:5-44
MERGED from [com.google.android.gms:play-services-location:16.0.0] C:\Users\djabe\.gradle\caches\transforms-1\files-1.1\play-services-location-16.0.0.aar\74b4555b0ca20556824f79d7485ff271\AndroidManifest.xml:5:5-44
MERGED from [com.google.firebase:firebase-auth:16.2.1] C:\Users\djabe\.gradle\caches\transforms-1\files-1.1\firebase-auth-16.2.1.aar\9459f1ea7fa148533eadc713e776278b\AndroidManifest.xml:21:5-44
MERGED from [com.google.firebase:firebase-auth:16.2.1] C:\Users\djabe\.gradle\caches\transforms-1\files-1.1\firebase-auth-16.2.1.aar\9459f1ea7fa148533eadc713e776278b\AndroidManifest.xml:21:5-44
MERGED from [com.google.android.gms:play-services-audience:16.0.0] C:\Users\djabe\.gradle\caches\transforms-1\files-1.1\play-services-audience-16.0.0.aar\1c846aa391e64a25f68ea48c9f1878e4\AndroidManifest.xml:20:5-44
MERGED from [com.google.android.gms:play-services-audience:16.0.0] C:\Users\djabe\.gradle\caches\transforms-1\files-1.1\play-services-audience-16.0.0.aar\1c846aa391e64a25f68ea48c9f1878e4\AndroidManifest.xml:20:5-44
MERGED from [com.google.android.gms:play-services-auth-api-phone:15.0.1] C:\Users\djabe\.gradle\caches\transforms-1\files-1.1\play-services-auth-api-phone-15.0.1.aar\335d9b241d8afe9b3f9c801f8c3b2195\AndroidManifest.xml:5:5-44
MERGED from [com.google.android.gms:play-services-auth-api-phone:15.0.1] C:\Users\djabe\.gradle\caches\transforms-1\files-1.1\play-services-auth-api-phone-15.0.1.aar\335d9b241d8afe9b3f9c801f8c3b2195\AndroidManifest.xml:5:5-44
MERGED from [com.google.android.gms:play-services-auth-base:15.1.0] C:\Users\djabe\.gradle\caches\transforms-1\files-1.1\play-services-auth-base-15.1.0.aar\3e82d62ccd17b9d929315e1f8ad38d8a\AndroidManifest.xml:5:5-44
MERGED from [com.google.android.gms:play-services-auth-base:15.1.0] C:\Users\djabe\.gradle\caches\transforms-1\files-1.1\play-services-auth-base-15.1.0.aar\3e82d62ccd17b9d929315e1f8ad38d8a\AndroidManifest.xml:5:5-44
MERGED from [com.google.android.gms:play-services-flags:16.0.1] C:\Users\djabe\.gradle\caches\transforms-1\files-1.1\play-services-flags-16.0.1.aar\60a7d4eddb8eb7b260f80852a5ca597d\AndroidManifest.xml:20:5-44
MERGED from [com.google.android.gms:play-services-flags:16.0.1] C:\Users\djabe\.gradle\caches\transforms-1\files-1.1\play-services-flags-16.0.1.aar\60a7d4eddb8eb7b260f80852a5ca597d\AndroidManifest.xml:20:5-44
MERGED from [com.google.firebase:firebase-auth-interop:16.0.1] C:\Users\djabe\.gradle\caches\transforms-1\files-1.1\firebase-auth-interop-16.0.1.aar\b1e75233d3ba176dfbdacfe5909ab132\AndroidManifest.xml:5:5-44
MERGED from [com.google.firebase:firebase-auth-interop:16.0.1] C:\Users\djabe\.gradle\caches\transforms-1\files-1.1\firebase-auth-interop-16.0.1.aar\b1e75233d3ba176dfbdacfe5909ab132\AndroidManifest.xml:5:5-44
MERGED from [com.google.firebase:firebase-core:16.0.8] C:\Users\djabe\.gradle\caches\transforms-1\files-1.1\firebase-core-16.0.8.aar\9b9a8396ccc422efba2e92f026506170\AndroidManifest.xml:5:5-44
MERGED from [com.google.firebase:firebase-core:16.0.8] C:\Users\djabe\.gradle\caches\transforms-1\files-1.1\firebase-core-16.0.8.aar\9b9a8396ccc422efba2e92f026506170\AndroidManifest.xml:5:5-44
MERGED from [com.google.firebase:firebase-analytics:16.4.0] C:\Users\djabe\.gradle\caches\transforms-1\files-1.1\firebase-analytics-16.4.0.aar\52d838cf5f1bea449ef95db72d69aa30\AndroidManifest.xml:5:5-44
MERGED from [com.google.firebase:firebase-analytics:16.4.0] C:\Users\djabe\.gradle\caches\transforms-1\files-1.1\firebase-analytics-16.4.0.aar\52d838cf5f1bea449ef95db72d69aa30\AndroidManifest.xml:5:5-44
MERGED from [com.google.android.gms:play-services-measurement-api:16.4.0] C:\Users\djabe\.gradle\caches\transforms-1\files-1.1\play-services-measurement-api-16.4.0.aar\9d08d59d65378d907f20387f13dfac43\AndroidManifest.xml:20:5-44
MERGED from [com.google.android.gms:play-services-measurement-api:16.4.0] C:\Users\djabe\.gradle\caches\transforms-1\files-1.1\play-services-measurement-api-16.4.0.aar\9d08d59d65378d907f20387f13dfac43\AndroidManifest.xml:20:5-44
MERGED from [com.google.firebase:firebase-iid:17.0.3] C:\Users\djabe\.gradle\caches\transforms-1\files-1.1\firebase-iid-17.0.3.aar\636052267cce5816696d8846080cf555\AndroidManifest.xml:20:5-44
MERGED from [com.google.firebase:firebase-iid:17.0.3] C:\Users\djabe\.gradle\caches\transforms-1\files-1.1\firebase-iid-17.0.3.aar\636052267cce5816696d8846080cf555\AndroidManifest.xml:20:5-44
MERGED from [com.google.firebase:firebase-iid-interop:16.0.1] C:\Users\djabe\.gradle\caches\transforms-1\files-1.1\firebase-iid-interop-16.0.1.aar\27deb06d71f465f726416a712b97d40e\AndroidManifest.xml:5:5-44
MERGED from [com.google.firebase:firebase-iid-interop:16.0.1] C:\Users\djabe\.gradle\caches\transforms-1\files-1.1\firebase-iid-interop-16.0.1.aar\27deb06d71f465f726416a712b97d40e\AndroidManifest.xml:5:5-44
MERGED from [com.google.android.gms:play-services-base:16.0.1] C:\Users\djabe\.gradle\caches\transforms-1\files-1.1\play-services-base-16.0.1.aar\d0fb6a125e7bcb6dcef86fff31875a31\AndroidManifest.xml:20:5-44
MERGED from [com.google.android.gms:play-services-base:16.0.1] C:\Users\djabe\.gradle\caches\transforms-1\files-1.1\play-services-base-16.0.1.aar\d0fb6a125e7bcb6dcef86fff31875a31\AndroidManifest.xml:20:5-44
MERGED from [com.google.firebase:firebase-common:16.0.3] C:\Users\djabe\.gradle\caches\transforms-1\files-1.1\firebase-common-16.0.3.aar\f35f38e4593cdf092f7ffa9f76a7dbad\AndroidManifest.xml:5:5-7:41
MERGED from [com.google.firebase:firebase-common:16.0.3] C:\Users\djabe\.gradle\caches\transforms-1\files-1.1\firebase-common-16.0.3.aar\f35f38e4593cdf092f7ffa9f76a7dbad\AndroidManifest.xml:5:5-7:41
MERGED from [com.google.android.gms:play-services-tasks:16.0.1] C:\Users\djabe\.gradle\caches\transforms-1\files-1.1\play-services-tasks-16.0.1.aar\57f9a0a3fc6e6fc40dfd302aaebccb90\AndroidManifest.xml:5:5-44
MERGED from [com.google.android.gms:play-services-tasks:16.0.1] C:\Users\djabe\.gradle\caches\transforms-1\files-1.1\play-services-tasks-16.0.1.aar\57f9a0a3fc6e6fc40dfd302aaebccb90\AndroidManifest.xml:5:5-44
MERGED from [com.google.android.gms:play-services-places-placereport:16.0.0] C:\Users\djabe\.gradle\caches\transforms-1\files-1.1\play-services-places-placereport-16.0.0.aar\90a65ed6d57e3e1cce95400acbd04980\AndroidManifest.xml:20:5-44
MERGED from [com.google.android.gms:play-services-places-placereport:16.0.0] C:\Users\djabe\.gradle\caches\transforms-1\files-1.1\play-services-places-placereport-16.0.0.aar\90a65ed6d57e3e1cce95400acbd04980\AndroidManifest.xml:20:5-44
MERGED from [com.google.android.gms:play-services-measurement:16.4.0] C:\Users\djabe\.gradle\caches\transforms-1\files-1.1\play-services-measurement-16.4.0.aar\5e2d875f6c969cb0426879996790384e\AndroidManifest.xml:20:5-44
MERGED from [com.google.android.gms:play-services-measurement:16.4.0] C:\Users\djabe\.gradle\caches\transforms-1\files-1.1\play-services-measurement-16.4.0.aar\5e2d875f6c969cb0426879996790384e\AndroidManifest.xml:20:5-44
MERGED from [com.google.android.gms:play-services-measurement-sdk:16.4.0] C:\Users\djabe\.gradle\caches\transforms-1\files-1.1\play-services-measurement-sdk-16.4.0.aar\8c939298cb6b1d38ab6f3afb0a86a82e\AndroidManifest.xml:20:5-44
MERGED from [com.google.android.gms:play-services-measurement-sdk:16.4.0] C:\Users\djabe\.gradle\caches\transforms-1\files-1.1\play-services-measurement-sdk-16.4.0.aar\8c939298cb6b1d38ab6f3afb0a86a82e\AndroidManifest.xml:20:5-44
MERGED from [com.google.android.gms:play-services-measurement-impl:16.4.0] C:\Users\djabe\.gradle\caches\transforms-1\files-1.1\play-services-measurement-impl-16.4.0.aar\37ca89f68a3e8d89833aadf889a8330e\AndroidManifest.xml:20:5-44
MERGED from [com.google.android.gms:play-services-measurement-impl:16.4.0] C:\Users\djabe\.gradle\caches\transforms-1\files-1.1\play-services-measurement-impl-16.4.0.aar\37ca89f68a3e8d89833aadf889a8330e\AndroidManifest.xml:20:5-44
MERGED from [com.google.android.gms:play-services-measurement-sdk-api:16.4.0] C:\Users\djabe\.gradle\caches\transforms-1\files-1.1\play-services-measurement-sdk-api-16.4.0.aar\e898b4e49899c6ef9bcd4863de7c8418\AndroidManifest.xml:20:5-44
MERGED from [com.google.android.gms:play-services-measurement-sdk-api:16.4.0] C:\Users\djabe\.gradle\caches\transforms-1\files-1.1\play-services-measurement-sdk-api-16.4.0.aar\e898b4e49899c6ef9bcd4863de7c8418\AndroidManifest.xml:20:5-44
MERGED from [com.google.android.gms:play-services-measurement-base:16.4.0] C:\Users\djabe\.gradle\caches\transforms-1\files-1.1\play-services-measurement-base-16.4.0.aar\803a24be48665dfe1c23638cb093870e\AndroidManifest.xml:5:5-44
MERGED from [com.google.android.gms:play-services-measurement-base:16.4.0] C:\Users\djabe\.gradle\caches\transforms-1\files-1.1\play-services-measurement-base-16.4.0.aar\803a24be48665dfe1c23638cb093870e\AndroidManifest.xml:5:5-44
MERGED from [com.google.android.gms:play-services-stats:16.0.1] C:\Users\djabe\.gradle\caches\transforms-1\files-1.1\play-services-stats-16.0.1.aar\fbbcb4bba96da618b218ecd6bd959bf5\AndroidManifest.xml:5:5-44
MERGED from [com.google.android.gms:play-services-stats:16.0.1] C:\Users\djabe\.gradle\caches\transforms-1\files-1.1\play-services-stats-16.0.1.aar\fbbcb4bba96da618b218ecd6bd959bf5\AndroidManifest.xml:5:5-44
MERGED from [com.google.firebase:firebase-measurement-connector:17.0.1] C:\Users\djabe\.gradle\caches\transforms-1\files-1.1\firebase-measurement-connector-17.0.1.aar\56570b871dcc887d83e1de2c622ed954\AndroidManifest.xml:20:5-44
MERGED from [com.google.firebase:firebase-measurement-connector:17.0.1] C:\Users\djabe\.gradle\caches\transforms-1\files-1.1\firebase-measurement-connector-17.0.1.aar\56570b871dcc887d83e1de2c622ed954\AndroidManifest.xml:20:5-44
MERGED from [com.google.android.gms:play-services-ads-identifier:16.0.0] C:\Users\djabe\.gradle\caches\transforms-1\files-1.1\play-services-ads-identifier-16.0.0.aar\7d486c7f0e574e65e1e6fbba4580febc\AndroidManifest.xml:20:5-44
MERGED from [com.google.android.gms:play-services-ads-identifier:16.0.0] C:\Users\djabe\.gradle\caches\transforms-1\files-1.1\play-services-ads-identifier-16.0.0.aar\7d486c7f0e574e65e1e6fbba4580febc\AndroidManifest.xml:20:5-44
MERGED from [com.google.android.gms:play-services-basement:16.2.0] C:\Users\djabe\.gradle\caches\transforms-1\files-1.1\play-services-basement-16.2.0.aar\6be401850ea8ba283a7203beacda9c1e\AndroidManifest.xml:20:5-44
MERGED from [com.google.android.gms:play-services-basement:16.2.0] C:\Users\djabe\.gradle\caches\transforms-1\files-1.1\play-services-basement-16.2.0.aar\6be401850ea8ba283a7203beacda9c1e\AndroidManifest.xml:20:5-44
MERGED from [com.android.support:support-v4:26.1.0] C:\Users\djabe\.gradle\caches\transforms-1\files-1.1\support-v4-26.1.0.aar\a4671259cb53db683e9748e5f9be6765\AndroidManifest.xml:21:5-23:54
MERGED from [com.android.support:support-v4:26.1.0] C:\Users\djabe\.gradle\caches\transforms-1\files-1.1\support-v4-26.1.0.aar\a4671259cb53db683e9748e5f9be6765\AndroidManifest.xml:21:5-23:54
MERGED from [com.android.support:animated-vector-drawable:26.1.0] C:\Users\djabe\.gradle\caches\transforms-1\files-1.1\animated-vector-drawable-26.1.0.aar\d38193bcf5230246ca27c244f20cee91\AndroidManifest.xml:20:5-44
MERGED from [com.android.support:animated-vector-drawable:26.1.0] C:\Users\djabe\.gradle\caches\transforms-1\files-1.1\animated-vector-drawable-26.1.0.aar\d38193bcf5230246ca27c244f20cee91\AndroidManifest.xml:20:5-44
MERGED from [com.android.support:support-vector-drawable:26.1.0] C:\Users\djabe\.gradle\caches\transforms-1\files-1.1\support-vector-drawable-26.1.0.aar\058e4c6586ca2882d0c92006803e5e05\AndroidManifest.xml:20:5-44
MERGED from [com.android.support:support-vector-drawable:26.1.0] C:\Users\djabe\.gradle\caches\transforms-1\files-1.1\support-vector-drawable-26.1.0.aar\058e4c6586ca2882d0c92006803e5e05\AndroidManifest.xml:20:5-44
MERGED from [com.google.maps.android:android-maps-utils:0.5] C:\Users\djabe\.gradle\caches\transforms-1\files-1.1\android-maps-utils-0.5.aar\04678206a45fa31efa4bb545ca80d122\AndroidManifest.xml:5:5-43
MERGED from [com.google.maps.android:android-maps-utils:0.5] C:\Users\djabe\.gradle\caches\transforms-1\files-1.1\android-maps-utils-0.5.aar\04678206a45fa31efa4bb545ca80d122\AndroidManifest.xml:5:5-43
MERGED from [com.jakewharton:butterknife:8.8.1] C:\Users\djabe\.gradle\caches\transforms-1\files-1.1\butterknife-8.8.1.aar\ce0d4217a1f142770d6094a82f80c9f9\AndroidManifest.xml:5:5-43
MERGED from [com.jakewharton:butterknife:8.8.1] C:\Users\djabe\.gradle\caches\transforms-1\files-1.1\butterknife-8.8.1.aar\ce0d4217a1f142770d6094a82f80c9f9\AndroidManifest.xml:5:5-43
MERGED from [jp.wasabeef:glide-transformations:2.0.1] C:\Users\djabe\.gradle\caches\transforms-1\files-1.1\glide-transformations-2.0.1.aar\4e0d035f4c942bda9415dc4b10b411ed\AndroidManifest.xml:8:5-10:41
MERGED from [jp.wasabeef:glide-transformations:2.0.1] C:\Users\djabe\.gradle\caches\transforms-1\files-1.1\glide-transformations-2.0.1.aar\4e0d035f4c942bda9415dc4b10b411ed\AndroidManifest.xml:8:5-10:41
MERGED from [com.facebook.stetho:stetho:1.5.0] C:\Users\djabe\.gradle\caches\transforms-1\files-1.1\stetho-1.5.0.aar\64ffde54d5a5e252ee83d293a38db8b2\AndroidManifest.xml:7:5-9:41
MERGED from [com.facebook.stetho:stetho:1.5.0] C:\Users\djabe\.gradle\caches\transforms-1\files-1.1\stetho-1.5.0.aar\64ffde54d5a5e252ee83d293a38db8b2\AndroidManifest.xml:7:5-9:41
MERGED from [com.android.support:support-fragment:26.1.0] C:\Users\djabe\.gradle\caches\transforms-1\files-1.1\support-fragment-26.1.0.aar\c36a838048260f74d19f2c452aa96e72\AndroidManifest.xml:21:5-23:60
MERGED from [com.android.support:support-fragment:26.1.0] C:\Users\djabe\.gradle\caches\transforms-1\files-1.1\support-fragment-26.1.0.aar\c36a838048260f74d19f2c452aa96e72\AndroidManifest.xml:21:5-23:60
MERGED from [com.android.support:support-core-ui:26.1.0] C:\Users\djabe\.gradle\caches\transforms-1\files-1.1\support-core-ui-26.1.0.aar\8e653f3b5f7b48f401a57b34fef675dc\AndroidManifest.xml:21:5-23:58
MERGED from [com.android.support:support-core-ui:26.1.0] C:\Users\djabe\.gradle\caches\transforms-1\files-1.1\support-core-ui-26.1.0.aar\8e653f3b5f7b48f401a57b34fef675dc\AndroidManifest.xml:21:5-23:58
MERGED from [com.android.support:support-media-compat:26.1.0] C:\Users\djabe\.gradle\caches\transforms-1\files-1.1\support-media-compat-26.1.0.aar\c57f3de3b1f64188b93f0433668f93ee\AndroidManifest.xml:21:5-23:63
MERGED from [com.android.support:support-media-compat:26.1.0] C:\Users\djabe\.gradle\caches\transforms-1\files-1.1\support-media-compat-26.1.0.aar\c57f3de3b1f64188b93f0433668f93ee\AndroidManifest.xml:21:5-23:63
MERGED from [com.android.support:support-core-utils:26.1.0] C:\Users\djabe\.gradle\caches\transforms-1\files-1.1\support-core-utils-26.1.0.aar\08c39a4927af512e5547aca9e019fd25\AndroidManifest.xml:21:5-23:61
MERGED from [com.android.support:support-core-utils:26.1.0] C:\Users\djabe\.gradle\caches\transforms-1\files-1.1\support-core-utils-26.1.0.aar\08c39a4927af512e5547aca9e019fd25\AndroidManifest.xml:21:5-23:61
MERGED from [com.android.support:support-compat:26.1.0] C:\Users\djabe\.gradle\caches\transforms-1\files-1.1\support-compat-26.1.0.aar\f0c235f06e1984f2f8d6ed40b8e72a88\AndroidManifest.xml:21:5-23:58
MERGED from [com.android.support:support-compat:26.1.0] C:\Users\djabe\.gradle\caches\transforms-1\files-1.1\support-compat-26.1.0.aar\f0c235f06e1984f2f8d6ed40b8e72a88\AndroidManifest.xml:21:5-23:58
MERGED from [android.arch.lifecycle:runtime:1.0.0] C:\Users\djabe\.gradle\caches\transforms-1\files-1.1\runtime-1.0.0.aar\5eb1be056809ed8c196944502ba0a9ef\AndroidManifest.xml:20:5-22:41
MERGED from [android.arch.lifecycle:runtime:1.0.0] C:\Users\djabe\.gradle\caches\transforms-1\files-1.1\runtime-1.0.0.aar\5eb1be056809ed8c196944502ba0a9ef\AndroidManifest.xml:20:5-22:41
INJECTED from C:\Users\djabe\Documents\PSP_projekt\pbd2019-63160061\app\src\main\AndroidManifest.xml
INJECTED from C:\Users\djabe\Documents\PSP_projekt\pbd2019-63160061\app\src\main\AndroidManifest.xml
	tools:overrideLibrary
		ADDED from [com.android.support:design:26.1.0] C:\Users\djabe\.gradle\caches\transforms-1\files-1.1\design-26.1.0.aar\cc21cdc3a58532517dac11e886814491\AndroidManifest.xml:23:9-59
	android:targetSdkVersion
		INJECTED from C:\Users\djabe\Documents\PSP_projekt\pbd2019-63160061\app\src\main\AndroidManifest.xml
		ADDED from C:\Users\djabe\Documents\PSP_projekt\pbd2019-63160061\app\src\main\AndroidManifest.xml
		INJECTED from C:\Users\djabe\Documents\PSP_projekt\pbd2019-63160061\app\src\main\AndroidManifest.xml
	android:minSdkVersion
		INJECTED from C:\Users\djabe\Documents\PSP_projekt\pbd2019-63160061\app\src\main\AndroidManifest.xml
		ADDED from C:\Users\djabe\Documents\PSP_projekt\pbd2019-63160061\app\src\main\AndroidManifest.xml
		INJECTED from C:\Users\djabe\Documents\PSP_projekt\pbd2019-63160061\app\src\main\AndroidManifest.xml
meta-data#android.support.VERSION
ADDED from [com.android.support:design:26.1.0] C:\Users\djabe\.gradle\caches\transforms-1\files-1.1\design-26.1.0.aar\cc21cdc3a58532517dac11e886814491\AndroidManifest.xml:26:9-28:38
MERGED from [com.android.support:recyclerview-v7:26.1.0] C:\Users\djabe\.gradle\caches\transforms-1\files-1.1\recyclerview-v7-26.1.0.aar\f5783afa2ea0ff96b3fa7a8420041954\AndroidManifest.xml:23:9-25:38
MERGED from [com.android.support:recyclerview-v7:26.1.0] C:\Users\djabe\.gradle\caches\transforms-1\files-1.1\recyclerview-v7-26.1.0.aar\f5783afa2ea0ff96b3fa7a8420041954\AndroidManifest.xml:23:9-25:38
MERGED from [com.android.support:appcompat-v7:26.1.0] C:\Users\djabe\.gradle\caches\transforms-1\files-1.1\appcompat-v7-26.1.0.aar\56a20edf1eb82bd137306884d182a145\AndroidManifest.xml:26:9-28:38
MERGED from [com.android.support:appcompat-v7:26.1.0] C:\Users\djabe\.gradle\caches\transforms-1\files-1.1\appcompat-v7-26.1.0.aar\56a20edf1eb82bd137306884d182a145\AndroidManifest.xml:26:9-28:38
MERGED from [com.android.support:transition:26.1.0] C:\Users\djabe\.gradle\caches\transforms-1\files-1.1\transition-26.1.0.aar\60949e17b8de583420b658b27705d05e\AndroidManifest.xml:23:9-25:38
MERGED from [com.android.support:transition:26.1.0] C:\Users\djabe\.gradle\caches\transforms-1\files-1.1\transition-26.1.0.aar\60949e17b8de583420b658b27705d05e\AndroidManifest.xml:23:9-25:38
MERGED from [com.android.support:support-v4:26.1.0] C:\Users\djabe\.gradle\caches\transforms-1\files-1.1\support-v4-26.1.0.aar\a4671259cb53db683e9748e5f9be6765\AndroidManifest.xml:26:9-28:38
MERGED from [com.android.support:support-v4:26.1.0] C:\Users\djabe\.gradle\caches\transforms-1\files-1.1\support-v4-26.1.0.aar\a4671259cb53db683e9748e5f9be6765\AndroidManifest.xml:26:9-28:38
MERGED from [com.android.support:animated-vector-drawable:26.1.0] C:\Users\djabe\.gradle\caches\transforms-1\files-1.1\animated-vector-drawable-26.1.0.aar\d38193bcf5230246ca27c244f20cee91\AndroidManifest.xml:23:9-25:38
MERGED from [com.android.support:animated-vector-drawable:26.1.0] C:\Users\djabe\.gradle\caches\transforms-1\files-1.1\animated-vector-drawable-26.1.0.aar\d38193bcf5230246ca27c244f20cee91\AndroidManifest.xml:23:9-25:38
MERGED from [com.android.support:support-vector-drawable:26.1.0] C:\Users\djabe\.gradle\caches\transforms-1\files-1.1\support-vector-drawable-26.1.0.aar\058e4c6586ca2882d0c92006803e5e05\AndroidManifest.xml:23:9-25:38
MERGED from [com.android.support:support-vector-drawable:26.1.0] C:\Users\djabe\.gradle\caches\transforms-1\files-1.1\support-vector-drawable-26.1.0.aar\058e4c6586ca2882d0c92006803e5e05\AndroidManifest.xml:23:9-25:38
MERGED from [com.android.support:support-fragment:26.1.0] C:\Users\djabe\.gradle\caches\transforms-1\files-1.1\support-fragment-26.1.0.aar\c36a838048260f74d19f2c452aa96e72\AndroidManifest.xml:26:9-28:38
MERGED from [com.android.support:support-fragment:26.1.0] C:\Users\djabe\.gradle\caches\transforms-1\files-1.1\support-fragment-26.1.0.aar\c36a838048260f74d19f2c452aa96e72\AndroidManifest.xml:26:9-28:38
MERGED from [com.android.support:support-core-ui:26.1.0] C:\Users\djabe\.gradle\caches\transforms-1\files-1.1\support-core-ui-26.1.0.aar\8e653f3b5f7b48f401a57b34fef675dc\AndroidManifest.xml:26:9-28:38
MERGED from [com.android.support:support-core-ui:26.1.0] C:\Users\djabe\.gradle\caches\transforms-1\files-1.1\support-core-ui-26.1.0.aar\8e653f3b5f7b48f401a57b34fef675dc\AndroidManifest.xml:26:9-28:38
MERGED from [com.android.support:support-media-compat:26.1.0] C:\Users\djabe\.gradle\caches\transforms-1\files-1.1\support-media-compat-26.1.0.aar\c57f3de3b1f64188b93f0433668f93ee\AndroidManifest.xml:26:9-28:38
MERGED from [com.android.support:support-media-compat:26.1.0] C:\Users\djabe\.gradle\caches\transforms-1\files-1.1\support-media-compat-26.1.0.aar\c57f3de3b1f64188b93f0433668f93ee\AndroidManifest.xml:26:9-28:38
MERGED from [com.android.support:support-core-utils:26.1.0] C:\Users\djabe\.gradle\caches\transforms-1\files-1.1\support-core-utils-26.1.0.aar\08c39a4927af512e5547aca9e019fd25\AndroidManifest.xml:26:9-28:38
MERGED from [com.android.support:support-core-utils:26.1.0] C:\Users\djabe\.gradle\caches\transforms-1\files-1.1\support-core-utils-26.1.0.aar\08c39a4927af512e5547aca9e019fd25\AndroidManifest.xml:26:9-28:38
MERGED from [com.android.support:support-compat:26.1.0] C:\Users\djabe\.gradle\caches\transforms-1\files-1.1\support-compat-26.1.0.aar\f0c235f06e1984f2f8d6ed40b8e72a88\AndroidManifest.xml:26:9-28:38
MERGED from [com.android.support:support-compat:26.1.0] C:\Users\djabe\.gradle\caches\transforms-1\files-1.1\support-compat-26.1.0.aar\f0c235f06e1984f2f8d6ed40b8e72a88\AndroidManifest.xml:26:9-28:38
	android:value
		ADDED from [com.android.support:design:26.1.0] C:\Users\djabe\.gradle\caches\transforms-1\files-1.1\design-26.1.0.aar\cc21cdc3a58532517dac11e886814491\AndroidManifest.xml:28:13-35
	android:name
		ADDED from [com.android.support:design:26.1.0] C:\Users\djabe\.gradle\caches\transforms-1\files-1.1\design-26.1.0.aar\cc21cdc3a58532517dac11e886814491\AndroidManifest.xml:27:13-51
uses-permission#android.permission.ACCESS_NETWORK_STATE
ADDED from [com.google.android.gms:play-services-maps:16.0.0] C:\Users\djabe\.gradle\caches\transforms-1\files-1.1\play-services-maps-16.0.0.aar\0045a2ee2904959558bfb03ffa201b7e\AndroidManifest.xml:23:5-79
MERGED from [com.google.android.gms:play-services-measurement-api:16.4.0] C:\Users\djabe\.gradle\caches\transforms-1\files-1.1\play-services-measurement-api-16.4.0.aar\9d08d59d65378d907f20387f13dfac43\AndroidManifest.xml:23:5-79
MERGED from [com.google.android.gms:play-services-measurement-api:16.4.0] C:\Users\djabe\.gradle\caches\transforms-1\files-1.1\play-services-measurement-api-16.4.0.aar\9d08d59d65378d907f20387f13dfac43\AndroidManifest.xml:23:5-79
MERGED from [com.google.firebase:firebase-iid:17.0.3] C:\Users\djabe\.gradle\caches\transforms-1\files-1.1\firebase-iid-17.0.3.aar\636052267cce5816696d8846080cf555\AndroidManifest.xml:22:5-79
MERGED from [com.google.firebase:firebase-iid:17.0.3] C:\Users\djabe\.gradle\caches\transforms-1\files-1.1\firebase-iid-17.0.3.aar\636052267cce5816696d8846080cf555\AndroidManifest.xml:22:5-79
MERGED from [com.google.android.gms:play-services-measurement:16.4.0] C:\Users\djabe\.gradle\caches\transforms-1\files-1.1\play-services-measurement-16.4.0.aar\5e2d875f6c969cb0426879996790384e\AndroidManifest.xml:24:5-79
MERGED from [com.google.android.gms:play-services-measurement:16.4.0] C:\Users\djabe\.gradle\caches\transforms-1\files-1.1\play-services-measurement-16.4.0.aar\5e2d875f6c969cb0426879996790384e\AndroidManifest.xml:24:5-79
MERGED from [com.google.android.gms:play-services-measurement-impl:16.4.0] C:\Users\djabe\.gradle\caches\transforms-1\files-1.1\play-services-measurement-impl-16.4.0.aar\37ca89f68a3e8d89833aadf889a8330e\AndroidManifest.xml:24:5-79
MERGED from [com.google.android.gms:play-services-measurement-impl:16.4.0] C:\Users\djabe\.gradle\caches\transforms-1\files-1.1\play-services-measurement-impl-16.4.0.aar\37ca89f68a3e8d89833aadf889a8330e\AndroidManifest.xml:24:5-79
MERGED from [com.google.android.gms:play-services-measurement-sdk-api:16.4.0] C:\Users\djabe\.gradle\caches\transforms-1\files-1.1\play-services-measurement-sdk-api-16.4.0.aar\e898b4e49899c6ef9bcd4863de7c8418\AndroidManifest.xml:24:5-79
MERGED from [com.google.android.gms:play-services-measurement-sdk-api:16.4.0] C:\Users\djabe\.gradle\caches\transforms-1\files-1.1\play-services-measurement-sdk-api-16.4.0.aar\e898b4e49899c6ef9bcd4863de7c8418\AndroidManifest.xml:24:5-79
	android:name
		ADDED from [com.google.android.gms:play-services-maps:16.0.0] C:\Users\djabe\.gradle\caches\transforms-1\files-1.1\play-services-maps-16.0.0.aar\0045a2ee2904959558bfb03ffa201b7e\AndroidManifest.xml:23:22-76
uses-permission#android.permission.INTERNET
ADDED from [com.google.android.gms:play-services-maps:16.0.0] C:\Users\djabe\.gradle\caches\transforms-1\files-1.1\play-services-maps-16.0.0.aar\0045a2ee2904959558bfb03ffa201b7e\AndroidManifest.xml:24:5-67
MERGED from [com.google.android.gms:play-services-measurement-api:16.4.0] C:\Users\djabe\.gradle\caches\transforms-1\files-1.1\play-services-measurement-api-16.4.0.aar\9d08d59d65378d907f20387f13dfac43\AndroidManifest.xml:22:5-67
MERGED from [com.google.android.gms:play-services-measurement-api:16.4.0] C:\Users\djabe\.gradle\caches\transforms-1\files-1.1\play-services-measurement-api-16.4.0.aar\9d08d59d65378d907f20387f13dfac43\AndroidManifest.xml:22:5-67
MERGED from [com.google.firebase:firebase-iid:17.0.3] C:\Users\djabe\.gradle\caches\transforms-1\files-1.1\firebase-iid-17.0.3.aar\636052267cce5816696d8846080cf555\AndroidManifest.xml:23:5-67
MERGED from [com.google.firebase:firebase-iid:17.0.3] C:\Users\djabe\.gradle\caches\transforms-1\files-1.1\firebase-iid-17.0.3.aar\636052267cce5816696d8846080cf555\AndroidManifest.xml:23:5-67
MERGED from [com.google.android.gms:play-services-measurement:16.4.0] C:\Users\djabe\.gradle\caches\transforms-1\files-1.1\play-services-measurement-16.4.0.aar\5e2d875f6c969cb0426879996790384e\AndroidManifest.xml:23:5-67
MERGED from [com.google.android.gms:play-services-measurement:16.4.0] C:\Users\djabe\.gradle\caches\transforms-1\files-1.1\play-services-measurement-16.4.0.aar\5e2d875f6c969cb0426879996790384e\AndroidManifest.xml:23:5-67
MERGED from [com.google.android.gms:play-services-measurement-impl:16.4.0] C:\Users\djabe\.gradle\caches\transforms-1\files-1.1\play-services-measurement-impl-16.4.0.aar\37ca89f68a3e8d89833aadf889a8330e\AndroidManifest.xml:23:5-67
MERGED from [com.google.android.gms:play-services-measurement-impl:16.4.0] C:\Users\djabe\.gradle\caches\transforms-1\files-1.1\play-services-measurement-impl-16.4.0.aar\37ca89f68a3e8d89833aadf889a8330e\AndroidManifest.xml:23:5-67
MERGED from [com.google.android.gms:play-services-measurement-sdk-api:16.4.0] C:\Users\djabe\.gradle\caches\transforms-1\files-1.1\play-services-measurement-sdk-api-16.4.0.aar\e898b4e49899c6ef9bcd4863de7c8418\AndroidManifest.xml:23:5-67
MERGED from [com.google.android.gms:play-services-measurement-sdk-api:16.4.0] C:\Users\djabe\.gradle\caches\transforms-1\files-1.1\play-services-measurement-sdk-api-16.4.0.aar\e898b4e49899c6ef9bcd4863de7c8418\AndroidManifest.xml:23:5-67
	android:name
		ADDED from [com.google.android.gms:play-services-maps:16.0.0] C:\Users\djabe\.gradle\caches\transforms-1\files-1.1\play-services-maps-16.0.0.aar\0045a2ee2904959558bfb03ffa201b7e\AndroidManifest.xml:24:22-64
uses-feature#0x00020000
ADDED from [com.google.android.gms:play-services-maps:16.0.0] C:\Users\djabe\.gradle\caches\transforms-1\files-1.1\play-services-maps-16.0.0.aar\0045a2ee2904959558bfb03ffa201b7e\AndroidManifest.xml:26:5-28:35
	android:glEsVersion
		ADDED from [com.google.android.gms:play-services-maps:16.0.0] C:\Users\djabe\.gradle\caches\transforms-1\files-1.1\play-services-maps-16.0.0.aar\0045a2ee2904959558bfb03ffa201b7e\AndroidManifest.xml:27:9-41
	android:required
		ADDED from [com.google.android.gms:play-services-maps:16.0.0] C:\Users\djabe\.gradle\caches\transforms-1\files-1.1\play-services-maps-16.0.0.aar\0045a2ee2904959558bfb03ffa201b7e\AndroidManifest.xml:28:9-32
activity#com.google.android.gms.auth.api.signin.internal.SignInHubActivity
ADDED from [com.google.android.gms:play-services-auth:16.0.0] C:\Users\djabe\.gradle\caches\transforms-1\files-1.1\play-services-auth-16.0.0.aar\4755207fa91ffceeb8e79fcf6910b3dd\AndroidManifest.xml:23:9-27:75
	android:excludeFromRecents
		ADDED from [com.google.android.gms:play-services-auth:16.0.0] C:\Users\djabe\.gradle\caches\transforms-1\files-1.1\play-services-auth-16.0.0.aar\4755207fa91ffceeb8e79fcf6910b3dd\AndroidManifest.xml:25:13-46
	android:exported
		ADDED from [com.google.android.gms:play-services-auth:16.0.0] C:\Users\djabe\.gradle\caches\transforms-1\files-1.1\play-services-auth-16.0.0.aar\4755207fa91ffceeb8e79fcf6910b3dd\AndroidManifest.xml:26:13-37
	android:theme
		ADDED from [com.google.android.gms:play-services-auth:16.0.0] C:\Users\djabe\.gradle\caches\transforms-1\files-1.1\play-services-auth-16.0.0.aar\4755207fa91ffceeb8e79fcf6910b3dd\AndroidManifest.xml:27:13-72
	android:name
		ADDED from [com.google.android.gms:play-services-auth:16.0.0] C:\Users\djabe\.gradle\caches\transforms-1\files-1.1\play-services-auth-16.0.0.aar\4755207fa91ffceeb8e79fcf6910b3dd\AndroidManifest.xml:24:13-93
service#com.google.android.gms.auth.api.signin.RevocationBoundService
ADDED from [com.google.android.gms:play-services-auth:16.0.0] C:\Users\djabe\.gradle\caches\transforms-1\files-1.1\play-services-auth-16.0.0.aar\4755207fa91ffceeb8e79fcf6910b3dd\AndroidManifest.xml:33:9-36:110
	android:exported
		ADDED from [com.google.android.gms:play-services-auth:16.0.0] C:\Users\djabe\.gradle\caches\transforms-1\files-1.1\play-services-auth-16.0.0.aar\4755207fa91ffceeb8e79fcf6910b3dd\AndroidManifest.xml:35:13-36
	android:permission
		ADDED from [com.google.android.gms:play-services-auth:16.0.0] C:\Users\djabe\.gradle\caches\transforms-1\files-1.1\play-services-auth-16.0.0.aar\4755207fa91ffceeb8e79fcf6910b3dd\AndroidManifest.xml:36:13-107
	android:name
		ADDED from [com.google.android.gms:play-services-auth:16.0.0] C:\Users\djabe\.gradle\caches\transforms-1\files-1.1\play-services-auth-16.0.0.aar\4755207fa91ffceeb8e79fcf6910b3dd\AndroidManifest.xml:34:13-89
activity#com.google.firebase.auth.internal.FederatedSignInActivity
ADDED from [com.google.firebase:firebase-auth:16.2.1] C:\Users\djabe\.gradle\caches\transforms-1\files-1.1\firebase-auth-16.2.1.aar\9459f1ea7fa148533eadc713e776278b\AndroidManifest.xml:24:9-31:50
	android:excludeFromRecents
		ADDED from [com.google.firebase:firebase-auth:16.2.1] C:\Users\djabe\.gradle\caches\transforms-1\files-1.1\firebase-auth-16.2.1.aar\9459f1ea7fa148533eadc713e776278b\AndroidManifest.xml:26:13-46
	android:launchMode
		ADDED from [com.google.firebase:firebase-auth:16.2.1] C:\Users\djabe\.gradle\caches\transforms-1\files-1.1\firebase-auth-16.2.1.aar\9459f1ea7fa148533eadc713e776278b\AndroidManifest.xml:28:13-44
	android:exported
		ADDED from [com.google.firebase:firebase-auth:16.2.1] C:\Users\djabe\.gradle\caches\transforms-1\files-1.1\firebase-auth-16.2.1.aar\9459f1ea7fa148533eadc713e776278b\AndroidManifest.xml:27:13-36
	android:permission
		ADDED from [com.google.firebase:firebase-auth:16.2.1] C:\Users\djabe\.gradle\caches\transforms-1\files-1.1\firebase-auth-16.2.1.aar\9459f1ea7fa148533eadc713e776278b\AndroidManifest.xml:29:13-102
	android:theme
		ADDED from [com.google.firebase:firebase-auth:16.2.1] C:\Users\djabe\.gradle\caches\transforms-1\files-1.1\firebase-auth-16.2.1.aar\9459f1ea7fa148533eadc713e776278b\AndroidManifest.xml:30:13-72
	tools:replace
		ADDED from [com.google.firebase:firebase-auth:16.2.1] C:\Users\djabe\.gradle\caches\transforms-1\files-1.1\firebase-auth-16.2.1.aar\9459f1ea7fa148533eadc713e776278b\AndroidManifest.xml:31:13-47
	android:name
		ADDED from [com.google.firebase:firebase-auth:16.2.1] C:\Users\djabe\.gradle\caches\transforms-1\files-1.1\firebase-auth-16.2.1.aar\9459f1ea7fa148533eadc713e776278b\AndroidManifest.xml:25:13-85
service#com.google.firebase.components.ComponentDiscoveryService
ADDED from [com.google.firebase:firebase-auth:16.2.1] C:\Users\djabe\.gradle\caches\transforms-1\files-1.1\firebase-auth-16.2.1.aar\9459f1ea7fa148533eadc713e776278b\AndroidManifest.xml:33:9-39:19
MERGED from [com.google.android.gms:play-services-measurement-api:16.4.0] C:\Users\djabe\.gradle\caches\transforms-1\files-1.1\play-services-measurement-api-16.4.0.aar\9d08d59d65378d907f20387f13dfac43\AndroidManifest.xml:27:9-33:19
MERGED from [com.google.android.gms:play-services-measurement-api:16.4.0] C:\Users\djabe\.gradle\caches\transforms-1\files-1.1\play-services-measurement-api-16.4.0.aar\9d08d59d65378d907f20387f13dfac43\AndroidManifest.xml:27:9-33:19
MERGED from [com.google.firebase:firebase-iid:17.0.3] C:\Users\djabe\.gradle\caches\transforms-1\files-1.1\firebase-iid-17.0.3.aar\636052267cce5816696d8846080cf555\AndroidManifest.xml:29:9-35:19
MERGED from [com.google.firebase:firebase-iid:17.0.3] C:\Users\djabe\.gradle\caches\transforms-1\files-1.1\firebase-iid-17.0.3.aar\636052267cce5816696d8846080cf555\AndroidManifest.xml:29:9-35:19
	android:exported
		ADDED from [com.google.firebase:firebase-auth:16.2.1] C:\Users\djabe\.gradle\caches\transforms-1\files-1.1\firebase-auth-16.2.1.aar\9459f1ea7fa148533eadc713e776278b\AndroidManifest.xml:35:13-37
	android:name
		ADDED from [com.google.firebase:firebase-auth:16.2.1] C:\Users\djabe\.gradle\caches\transforms-1\files-1.1\firebase-auth-16.2.1.aar\9459f1ea7fa148533eadc713e776278b\AndroidManifest.xml:34:13-84
meta-data#com.google.firebase.components:com.google.firebase.auth.FirebaseAuthRegistrar
ADDED from [com.google.firebase:firebase-auth:16.2.1] C:\Users\djabe\.gradle\caches\transforms-1\files-1.1\firebase-auth-16.2.1.aar\9459f1ea7fa148533eadc713e776278b\AndroidManifest.xml:36:13-38:85
	android:value
		ADDED from [com.google.firebase:firebase-auth:16.2.1] C:\Users\djabe\.gradle\caches\transforms-1\files-1.1\firebase-auth-16.2.1.aar\9459f1ea7fa148533eadc713e776278b\AndroidManifest.xml:38:17-82
	android:name
		ADDED from [com.google.firebase:firebase-auth:16.2.1] C:\Users\djabe\.gradle\caches\transforms-1\files-1.1\firebase-auth-16.2.1.aar\9459f1ea7fa148533eadc713e776278b\AndroidManifest.xml:37:17-109
uses-permission#android.permission.WAKE_LOCK
ADDED from [com.google.android.gms:play-services-measurement-api:16.4.0] C:\Users\djabe\.gradle\caches\transforms-1\files-1.1\play-services-measurement-api-16.4.0.aar\9d08d59d65378d907f20387f13dfac43\AndroidManifest.xml:24:5-68
MERGED from [com.google.firebase:firebase-iid:17.0.3] C:\Users\djabe\.gradle\caches\transforms-1\files-1.1\firebase-iid-17.0.3.aar\636052267cce5816696d8846080cf555\AndroidManifest.xml:24:5-68
MERGED from [com.google.firebase:firebase-iid:17.0.3] C:\Users\djabe\.gradle\caches\transforms-1\files-1.1\firebase-iid-17.0.3.aar\636052267cce5816696d8846080cf555\AndroidManifest.xml:24:5-68
MERGED from [com.google.android.gms:play-services-measurement:16.4.0] C:\Users\djabe\.gradle\caches\transforms-1\files-1.1\play-services-measurement-16.4.0.aar\5e2d875f6c969cb0426879996790384e\AndroidManifest.xml:25:5-68
MERGED from [com.google.android.gms:play-services-measurement:16.4.0] C:\Users\djabe\.gradle\caches\transforms-1\files-1.1\play-services-measurement-16.4.0.aar\5e2d875f6c969cb0426879996790384e\AndroidManifest.xml:25:5-68
MERGED from [com.google.android.gms:play-services-measurement-impl:16.4.0] C:\Users\djabe\.gradle\caches\transforms-1\files-1.1\play-services-measurement-impl-16.4.0.aar\37ca89f68a3e8d89833aadf889a8330e\AndroidManifest.xml:25:5-68
MERGED from [com.google.android.gms:play-services-measurement-impl:16.4.0] C:\Users\djabe\.gradle\caches\transforms-1\files-1.1\play-services-measurement-impl-16.4.0.aar\37ca89f68a3e8d89833aadf889a8330e\AndroidManifest.xml:25:5-68
MERGED from [com.google.android.gms:play-services-measurement-sdk-api:16.4.0] C:\Users\djabe\.gradle\caches\transforms-1\files-1.1\play-services-measurement-sdk-api-16.4.0.aar\e898b4e49899c6ef9bcd4863de7c8418\AndroidManifest.xml:25:5-68
MERGED from [com.google.android.gms:play-services-measurement-sdk-api:16.4.0] C:\Users\djabe\.gradle\caches\transforms-1\files-1.1\play-services-measurement-sdk-api-16.4.0.aar\e898b4e49899c6ef9bcd4863de7c8418\AndroidManifest.xml:25:5-68
	android:name
		ADDED from [com.google.android.gms:play-services-measurement-api:16.4.0] C:\Users\djabe\.gradle\caches\transforms-1\files-1.1\play-services-measurement-api-16.4.0.aar\9d08d59d65378d907f20387f13dfac43\AndroidManifest.xml:24:22-65
meta-data#com.google.firebase.components:com.google.firebase.analytics.connector.internal.AnalyticsConnectorRegistrar
ADDED from [com.google.android.gms:play-services-measurement-api:16.4.0] C:\Users\djabe\.gradle\caches\transforms-1\files-1.1\play-services-measurement-api-16.4.0.aar\9d08d59d65378d907f20387f13dfac43\AndroidManifest.xml:30:13-32:85
	android:value
		ADDED from [com.google.android.gms:play-services-measurement-api:16.4.0] C:\Users\djabe\.gradle\caches\transforms-1\files-1.1\play-services-measurement-api-16.4.0.aar\9d08d59d65378d907f20387f13dfac43\AndroidManifest.xml:32:17-82
	android:name
		ADDED from [com.google.android.gms:play-services-measurement-api:16.4.0] C:\Users\djabe\.gradle\caches\transforms-1\files-1.1\play-services-measurement-api-16.4.0.aar\9d08d59d65378d907f20387f13dfac43\AndroidManifest.xml:31:17-139
uses-permission#com.google.android.c2dm.permission.RECEIVE
ADDED from [com.google.firebase:firebase-iid:17.0.3] C:\Users\djabe\.gradle\caches\transforms-1\files-1.1\firebase-iid-17.0.3.aar\636052267cce5816696d8846080cf555\AndroidManifest.xml:26:5-82
	android:name
		ADDED from [com.google.firebase:firebase-iid:17.0.3] C:\Users\djabe\.gradle\caches\transforms-1\files-1.1\firebase-iid-17.0.3.aar\636052267cce5816696d8846080cf555\AndroidManifest.xml:26:22-79
meta-data#com.google.firebase.components:com.google.firebase.iid.Registrar
ADDED from [com.google.firebase:firebase-iid:17.0.3] C:\Users\djabe\.gradle\caches\transforms-1\files-1.1\firebase-iid-17.0.3.aar\636052267cce5816696d8846080cf555\AndroidManifest.xml:32:13-34:85
	android:value
		ADDED from [com.google.firebase:firebase-iid:17.0.3] C:\Users\djabe\.gradle\caches\transforms-1\files-1.1\firebase-iid-17.0.3.aar\636052267cce5816696d8846080cf555\AndroidManifest.xml:34:17-82
	android:name
		ADDED from [com.google.firebase:firebase-iid:17.0.3] C:\Users\djabe\.gradle\caches\transforms-1\files-1.1\firebase-iid-17.0.3.aar\636052267cce5816696d8846080cf555\AndroidManifest.xml:33:17-96
receiver#com.google.firebase.iid.FirebaseInstanceIdReceiver
ADDED from [com.google.firebase:firebase-iid:17.0.3] C:\Users\djabe\.gradle\caches\transforms-1\files-1.1\firebase-iid-17.0.3.aar\636052267cce5816696d8846080cf555\AndroidManifest.xml:37:9-44:20
	android:exported
		ADDED from [com.google.firebase:firebase-iid:17.0.3] C:\Users\djabe\.gradle\caches\transforms-1\files-1.1\firebase-iid-17.0.3.aar\636052267cce5816696d8846080cf555\AndroidManifest.xml:39:13-36
	android:permission
		ADDED from [com.google.firebase:firebase-iid:17.0.3] C:\Users\djabe\.gradle\caches\transforms-1\files-1.1\firebase-iid-17.0.3.aar\636052267cce5816696d8846080cf555\AndroidManifest.xml:40:13-73
	android:name
		ADDED from [com.google.firebase:firebase-iid:17.0.3] C:\Users\djabe\.gradle\caches\transforms-1\files-1.1\firebase-iid-17.0.3.aar\636052267cce5816696d8846080cf555\AndroidManifest.xml:38:13-78
intent-filter#action:name:com.google.android.c2dm.intent.RECEIVE
ADDED from [com.google.firebase:firebase-iid:17.0.3] C:\Users\djabe\.gradle\caches\transforms-1\files-1.1\firebase-iid-17.0.3.aar\636052267cce5816696d8846080cf555\AndroidManifest.xml:41:13-43:29
action#com.google.android.c2dm.intent.RECEIVE
ADDED from [com.google.firebase:firebase-iid:17.0.3] C:\Users\djabe\.gradle\caches\transforms-1\files-1.1\firebase-iid-17.0.3.aar\636052267cce5816696d8846080cf555\AndroidManifest.xml:42:17-81
	android:name
		ADDED from [com.google.firebase:firebase-iid:17.0.3] C:\Users\djabe\.gradle\caches\transforms-1\files-1.1\firebase-iid-17.0.3.aar\636052267cce5816696d8846080cf555\AndroidManifest.xml:42:25-78
service#com.google.firebase.iid.FirebaseInstanceIdService
ADDED from [com.google.firebase:firebase-iid:17.0.3] C:\Users\djabe\.gradle\caches\transforms-1\files-1.1\firebase-iid-17.0.3.aar\636052267cce5816696d8846080cf555\AndroidManifest.xml:50:9-56:19
	android:exported
		ADDED from [com.google.firebase:firebase-iid:17.0.3] C:\Users\djabe\.gradle\caches\transforms-1\files-1.1\firebase-iid-17.0.3.aar\636052267cce5816696d8846080cf555\AndroidManifest.xml:52:13-36
	android:name
		ADDED from [com.google.firebase:firebase-iid:17.0.3] C:\Users\djabe\.gradle\caches\transforms-1\files-1.1\firebase-iid-17.0.3.aar\636052267cce5816696d8846080cf555\AndroidManifest.xml:51:13-77
intent-filter#action:name:com.google.firebase.INSTANCE_ID_EVENT
ADDED from [com.google.firebase:firebase-iid:17.0.3] C:\Users\djabe\.gradle\caches\transforms-1\files-1.1\firebase-iid-17.0.3.aar\636052267cce5816696d8846080cf555\AndroidManifest.xml:53:13-55:29
	android:priority
		ADDED from [com.google.firebase:firebase-iid:17.0.3] C:\Users\djabe\.gradle\caches\transforms-1\files-1.1\firebase-iid-17.0.3.aar\636052267cce5816696d8846080cf555\AndroidManifest.xml:53:28-51
action#com.google.firebase.INSTANCE_ID_EVENT
ADDED from [com.google.firebase:firebase-iid:17.0.3] C:\Users\djabe\.gradle\caches\transforms-1\files-1.1\firebase-iid-17.0.3.aar\636052267cce5816696d8846080cf555\AndroidManifest.xml:54:17-80
	android:name
		ADDED from [com.google.firebase:firebase-iid:17.0.3] C:\Users\djabe\.gradle\caches\transforms-1\files-1.1\firebase-iid-17.0.3.aar\636052267cce5816696d8846080cf555\AndroidManifest.xml:54:25-77
activity#com.google.android.gms.common.api.GoogleApiActivity
ADDED from [com.google.android.gms:play-services-base:16.0.1] C:\Users\djabe\.gradle\caches\transforms-1\files-1.1\play-services-base-16.0.1.aar\d0fb6a125e7bcb6dcef86fff31875a31\AndroidManifest.xml:23:9-26:75
	android:exported
		ADDED from [com.google.android.gms:play-services-base:16.0.1] C:\Users\djabe\.gradle\caches\transforms-1\files-1.1\play-services-base-16.0.1.aar\d0fb6a125e7bcb6dcef86fff31875a31\AndroidManifest.xml:25:13-37
	android:theme
		ADDED from [com.google.android.gms:play-services-base:16.0.1] C:\Users\djabe\.gradle\caches\transforms-1\files-1.1\play-services-base-16.0.1.aar\d0fb6a125e7bcb6dcef86fff31875a31\AndroidManifest.xml:26:13-72
	android:name
		ADDED from [com.google.android.gms:play-services-base:16.0.1] C:\Users\djabe\.gradle\caches\transforms-1\files-1.1\play-services-base-16.0.1.aar\d0fb6a125e7bcb6dcef86fff31875a31\AndroidManifest.xml:24:13-79
provider#com.google.firebase.provider.FirebaseInitProvider
ADDED from [com.google.firebase:firebase-common:16.0.3] C:\Users\djabe\.gradle\caches\transforms-1\files-1.1\firebase-common-16.0.3.aar\f35f38e4593cdf092f7ffa9f76a7dbad\AndroidManifest.xml:10:9-14:39
	android:authorities
		ADDED from [com.google.firebase:firebase-common:16.0.3] C:\Users\djabe\.gradle\caches\transforms-1\files-1.1\firebase-common-16.0.3.aar\f35f38e4593cdf092f7ffa9f76a7dbad\AndroidManifest.xml:12:13-72
	android:exported
		ADDED from [com.google.firebase:firebase-common:16.0.3] C:\Users\djabe\.gradle\caches\transforms-1\files-1.1\firebase-common-16.0.3.aar\f35f38e4593cdf092f7ffa9f76a7dbad\AndroidManifest.xml:13:13-37
	android:initOrder
		ADDED from [com.google.firebase:firebase-common:16.0.3] C:\Users\djabe\.gradle\caches\transforms-1\files-1.1\firebase-common-16.0.3.aar\f35f38e4593cdf092f7ffa9f76a7dbad\AndroidManifest.xml:14:13-36
	android:name
		ADDED from [com.google.firebase:firebase-common:16.0.3] C:\Users\djabe\.gradle\caches\transforms-1\files-1.1\firebase-common-16.0.3.aar\f35f38e4593cdf092f7ffa9f76a7dbad\AndroidManifest.xml:11:13-77
uses-permission#com.google.android.finsky.permission.BIND_GET_INSTALL_REFERRER_SERVICE
ADDED from [com.google.android.gms:play-services-measurement:16.4.0] C:\Users\djabe\.gradle\caches\transforms-1\files-1.1\play-services-measurement-16.4.0.aar\5e2d875f6c969cb0426879996790384e\AndroidManifest.xml:26:5-110
MERGED from [com.google.android.gms:play-services-measurement-impl:16.4.0] C:\Users\djabe\.gradle\caches\transforms-1\files-1.1\play-services-measurement-impl-16.4.0.aar\37ca89f68a3e8d89833aadf889a8330e\AndroidManifest.xml:26:5-110
MERGED from [com.google.android.gms:play-services-measurement-impl:16.4.0] C:\Users\djabe\.gradle\caches\transforms-1\files-1.1\play-services-measurement-impl-16.4.0.aar\37ca89f68a3e8d89833aadf889a8330e\AndroidManifest.xml:26:5-110
	android:name
		ADDED from [com.google.android.gms:play-services-measurement:16.4.0] C:\Users\djabe\.gradle\caches\transforms-1\files-1.1\play-services-measurement-16.4.0.aar\5e2d875f6c969cb0426879996790384e\AndroidManifest.xml:26:22-107
receiver#com.google.android.gms.measurement.AppMeasurementReceiver
ADDED from [com.google.android.gms:play-services-measurement:16.4.0] C:\Users\djabe\.gradle\caches\transforms-1\files-1.1\play-services-measurement-16.4.0.aar\5e2d875f6c969cb0426879996790384e\AndroidManifest.xml:29:9-33:20
	android:enabled
		ADDED from [com.google.android.gms:play-services-measurement:16.4.0] C:\Users\djabe\.gradle\caches\transforms-1\files-1.1\play-services-measurement-16.4.0.aar\5e2d875f6c969cb0426879996790384e\AndroidManifest.xml:31:13-35
	android:exported
		ADDED from [com.google.android.gms:play-services-measurement:16.4.0] C:\Users\djabe\.gradle\caches\transforms-1\files-1.1\play-services-measurement-16.4.0.aar\5e2d875f6c969cb0426879996790384e\AndroidManifest.xml:32:13-37
	android:name
		ADDED from [com.google.android.gms:play-services-measurement:16.4.0] C:\Users\djabe\.gradle\caches\transforms-1\files-1.1\play-services-measurement-16.4.0.aar\5e2d875f6c969cb0426879996790384e\AndroidManifest.xml:30:13-85
receiver#com.google.android.gms.measurement.AppMeasurementInstallReferrerReceiver
ADDED from [com.google.android.gms:play-services-measurement:16.4.0] C:\Users\djabe\.gradle\caches\transforms-1\files-1.1\play-services-measurement-16.4.0.aar\5e2d875f6c969cb0426879996790384e\AndroidManifest.xml:34:9-42:20
MERGED from [com.google.android.gms:play-services-measurement-impl:16.4.0] C:\Users\djabe\.gradle\caches\transforms-1\files-1.1\play-services-measurement-impl-16.4.0.aar\37ca89f68a3e8d89833aadf889a8330e\AndroidManifest.xml:29:9-37:20
MERGED from [com.google.android.gms:play-services-measurement-impl:16.4.0] C:\Users\djabe\.gradle\caches\transforms-1\files-1.1\play-services-measurement-impl-16.4.0.aar\37ca89f68a3e8d89833aadf889a8330e\AndroidManifest.xml:29:9-37:20
	android:enabled
		ADDED from [com.google.android.gms:play-services-measurement:16.4.0] C:\Users\djabe\.gradle\caches\transforms-1\files-1.1\play-services-measurement-16.4.0.aar\5e2d875f6c969cb0426879996790384e\AndroidManifest.xml:36:13-35
	android:exported
		ADDED from [com.google.android.gms:play-services-measurement:16.4.0] C:\Users\djabe\.gradle\caches\transforms-1\files-1.1\play-services-measurement-16.4.0.aar\5e2d875f6c969cb0426879996790384e\AndroidManifest.xml:37:13-36
	android:permission
		ADDED from [com.google.android.gms:play-services-measurement:16.4.0] C:\Users\djabe\.gradle\caches\transforms-1\files-1.1\play-services-measurement-16.4.0.aar\5e2d875f6c969cb0426879996790384e\AndroidManifest.xml:38:13-69
	android:name
		ADDED from [com.google.android.gms:play-services-measurement:16.4.0] C:\Users\djabe\.gradle\caches\transforms-1\files-1.1\play-services-measurement-16.4.0.aar\5e2d875f6c969cb0426879996790384e\AndroidManifest.xml:35:13-100
intent-filter#action:name:com.android.vending.INSTALL_REFERRER
ADDED from [com.google.android.gms:play-services-measurement:16.4.0] C:\Users\djabe\.gradle\caches\transforms-1\files-1.1\play-services-measurement-16.4.0.aar\5e2d875f6c969cb0426879996790384e\AndroidManifest.xml:39:13-41:29
action#com.android.vending.INSTALL_REFERRER
ADDED from [com.google.android.gms:play-services-measurement:16.4.0] C:\Users\djabe\.gradle\caches\transforms-1\files-1.1\play-services-measurement-16.4.0.aar\5e2d875f6c969cb0426879996790384e\AndroidManifest.xml:40:17-79
	android:name
		ADDED from [com.google.android.gms:play-services-measurement:16.4.0] C:\Users\djabe\.gradle\caches\transforms-1\files-1.1\play-services-measurement-16.4.0.aar\5e2d875f6c969cb0426879996790384e\AndroidManifest.xml:40:25-76
service#com.google.android.gms.measurement.AppMeasurementService
ADDED from [com.google.android.gms:play-services-measurement:16.4.0] C:\Users\djabe\.gradle\caches\transforms-1\files-1.1\play-services-measurement-16.4.0.aar\5e2d875f6c969cb0426879996790384e\AndroidManifest.xml:44:9-47:40
	android:enabled
		ADDED from [com.google.android.gms:play-services-measurement:16.4.0] C:\Users\djabe\.gradle\caches\transforms-1\files-1.1\play-services-measurement-16.4.0.aar\5e2d875f6c969cb0426879996790384e\AndroidManifest.xml:46:13-35
	android:exported
		ADDED from [com.google.android.gms:play-services-measurement:16.4.0] C:\Users\djabe\.gradle\caches\transforms-1\files-1.1\play-services-measurement-16.4.0.aar\5e2d875f6c969cb0426879996790384e\AndroidManifest.xml:47:13-37
	android:name
		ADDED from [com.google.android.gms:play-services-measurement:16.4.0] C:\Users\djabe\.gradle\caches\transforms-1\files-1.1\play-services-measurement-16.4.0.aar\5e2d875f6c969cb0426879996790384e\AndroidManifest.xml:45:13-84
service#com.google.android.gms.measurement.AppMeasurementJobService
ADDED from [com.google.android.gms:play-services-measurement:16.4.0] C:\Users\djabe\.gradle\caches\transforms-1\files-1.1\play-services-measurement-16.4.0.aar\5e2d875f6c969cb0426879996790384e\AndroidManifest.xml:48:9-52:72
	android:enabled
		ADDED from [com.google.android.gms:play-services-measurement:16.4.0] C:\Users\djabe\.gradle\caches\transforms-1\files-1.1\play-services-measurement-16.4.0.aar\5e2d875f6c969cb0426879996790384e\AndroidManifest.xml:50:13-35
	android:exported
		ADDED from [com.google.android.gms:play-services-measurement:16.4.0] C:\Users\djabe\.gradle\caches\transforms-1\files-1.1\play-services-measurement-16.4.0.aar\5e2d875f6c969cb0426879996790384e\AndroidManifest.xml:51:13-37
	android:permission
		ADDED from [com.google.android.gms:play-services-measurement:16.4.0] C:\Users\djabe\.gradle\caches\transforms-1\files-1.1\play-services-measurement-16.4.0.aar\5e2d875f6c969cb0426879996790384e\AndroidManifest.xml:52:13-69
	android:name
		ADDED from [com.google.android.gms:play-services-measurement:16.4.0] C:\Users\djabe\.gradle\caches\transforms-1\files-1.1\play-services-measurement-16.4.0.aar\5e2d875f6c969cb0426879996790384e\AndroidManifest.xml:49:13-87
meta-data#com.google.android.gms.version
ADDED from [com.google.android.gms:play-services-basement:16.2.0] C:\Users\djabe\.gradle\caches\transforms-1\files-1.1\play-services-basement-16.2.0.aar\6be401850ea8ba283a7203beacda9c1e\AndroidManifest.xml:23:9-25:69
MERGED from [com.google.maps.android:android-maps-utils:0.5] C:\Users\djabe\.gradle\caches\transforms-1\files-1.1\android-maps-utils-0.5.aar\04678206a45fa31efa4bb545ca80d122\AndroidManifest.xml:8:9-10:69
MERGED from [com.google.maps.android:android-maps-utils:0.5] C:\Users\djabe\.gradle\caches\transforms-1\files-1.1\android-maps-utils-0.5.aar\04678206a45fa31efa4bb545ca80d122\AndroidManifest.xml:8:9-10:69
	android:value
		ADDED from [com.google.android.gms:play-services-basement:16.2.0] C:\Users\djabe\.gradle\caches\transforms-1\files-1.1\play-services-basement-16.2.0.aar\6be401850ea8ba283a7203beacda9c1e\AndroidManifest.xml:25:13-66
	android:name
		ADDED from [com.google.android.gms:play-services-basement:16.2.0] C:\Users\djabe\.gradle\caches\transforms-1\files-1.1\play-services-basement-16.2.0.aar\6be401850ea8ba283a7203beacda9c1e\AndroidManifest.xml:24:13-58
meta-data#android.arch.lifecycle.VERSION
ADDED from [android.arch.lifecycle:runtime:1.0.0] C:\Users\djabe\.gradle\caches\transforms-1\files-1.1\runtime-1.0.0.aar\5eb1be056809ed8c196944502ba0a9ef\AndroidManifest.xml:25:9-27:47
	android:value
		ADDED from [android.arch.lifecycle:runtime:1.0.0] C:\Users\djabe\.gradle\caches\transforms-1\files-1.1\runtime-1.0.0.aar\5eb1be056809ed8c196944502ba0a9ef\AndroidManifest.xml:27:13-44
	android:name
		ADDED from [android.arch.lifecycle:runtime:1.0.0] C:\Users\djabe\.gradle\caches\transforms-1\files-1.1\runtime-1.0.0.aar\5eb1be056809ed8c196944502ba0a9ef\AndroidManifest.xml:26:13-58
